(footprint "Conn_SMA_Molex_73251-1150"
	(version 20240108)
	(generator "pcbnew")
	(generator_version "8.0")
	(layer "F.Cu")
	(descr "50 Ohms, SMA Jack Receptacle, Edge Mount, .25µm Gold (Au) Plating, https://www.molex.com/en-us/products/part-detail/732511150")
	(tags "SMA RF Connector")
	(property "Reference" "REF**"
		(at 0 -7.62 0)
		(layer "F.SilkS")
		(uuid "397a873e-9528-4e0a-9fdf-d18142beb319")
		(effects
			(font
				(size 1 1)
				(thickness 0.15)
			)
		)
	)
	(property "Value" "Conn_SMA_Molex_73251-1150"
		(at 0 7.62 0)
		(layer "F.Fab")
		(uuid "8305a588-06a3-4eb0-bb4f-67678379420a")
		(effects
			(font
				(size 1 1)
				(thickness 0.2)
			)
		)
	)
	(property "Footprint" ""
		(at 0 0 0)
		(layer "F.Fab")
		(hide yes)
		(uuid "762356d6-ad64-42ac-b632-5a7ea9496949")
		(effects
			(font
				(size 1.27 1.27)
				(thickness 0.15)
			)
		)
	)
	(property "Datasheet" ""
		(at 0 0 0)
		(layer "F.Fab")
		(hide yes)
		(uuid "6be05719-6ccf-4cdc-a3eb-2ab428ec6b90")
		(effects
			(font
				(size 1.27 1.27)
				(thickness 0.15)
			)
		)
	)
	(property "Description" ""
		(at 0 0 0)
		(layer "F.Fab")
		(hide yes)
		(uuid "42a9bb39-29c5-43ca-8dfa-0954dfec0804")
		(effects
			(font
				(size 1.27 1.27)
				(thickness 0.15)
			)
		)
	)
	(attr smd)
	(fp_line
		(start 3.048 5.08)
		(end 4.826 5.08)
		(stroke
			(width 0.12)
			(type solid)
		)
		(layer "F.SilkS")
		(uuid "5968ff4c-29df-4fec-9fe9-85ee7b941608")
	)
	(fp_line
		(start 4.826 -5.08)
		(end 3.048 -5.08)
		(stroke
			(width 0.12)
			(type solid)
		)
		(layer "F.SilkS")
		(uuid "16e62c34-925e-4a96-b113-f02d0978306e")
	)
	(fp_line
		(start 4.826 -3.048)
		(end 4.826 -5.08)
		(stroke
			(width 0.12)
			(type solid)
		)
		(layer "F.SilkS")
		(uuid "75072724-a041-4ee6-9bdd-9826959da24b")
	)
	(fp_line
		(start 4.826 3.048)
		(end 12.7 3.048)
		(stroke
			(width 0.12)
			(type solid)
		)
		(layer "F.SilkS")
		(uuid "61015e6c-cee0-4870-bc5d-29604cbe4270")
	)
	(fp_line
		(start 4.826 5.08)
		(end 4.826 3.048)
		(stroke
			(width 0.12)
			(type solid)
		)
		(layer "F.SilkS")
		(uuid "043b0df4-7e65-409b-b934-8e96b1a0a9dc")
	)
	(fp_line
		(start 12.7 -3.048)
		(end 4.826 -3.048)
		(stroke
			(width 0.12)
			(type solid)
		)
		(layer "F.SilkS")
		(uuid "0b197b5f-eb21-4966-b19a-bb6077f3119d")
	)
	(fp_line
		(start 12.7 3.048)
		(end 12.7 -3.048)
		(stroke
			(width 0.12)
			(type solid)
		)
		(layer "F.SilkS")
		(uuid "16627550-d478-4814-85b8-7430ab00785b")
	)
	(fp_line
		(start -3.04 -5.84)
		(end 12.95 -5.84)
		(stroke
			(width 0.05)
			(type solid)
		)
		(layer "F.CrtYd")
		(uuid "fc69ed34-8c6c-40aa-aa0d-e344e57a0e6f")
	)
	(fp_line
		(start -3.04 6.09)
		(end -3.04 -5.84)
		(stroke
			(width 0.05)
			(type solid)
		)
		(layer "F.CrtYd")
		(uuid "14f2ae5a-5e29-4f2e-912e-c514578d1cae")
	)
	(fp_line
		(start 12.95 -5.84)
		(end 12.95 6.09)
		(stroke
			(width 0.05)
			(type solid)
		)
		(layer "F.CrtYd")
		(uuid "442d7caa-37af-4b1e-ade4-0957da5034e4")
	)
	(fp_line
		(start 12.95 6.09)
		(end -3.04 6.09)
		(stroke
			(width 0.05)
			(type solid)
		)
		(layer "F.CrtYd")
		(uuid "22d05cce-d262-43b2-9c61-e51498f00b74")
	)
	(fp_line
		(start -2.5 -5.5)
		(end 5 -5.5)
		(stroke
			(width 0.1)
			(type solid)
		)
		(layer "F.Fab")
		(uuid "f085bf80-5e3a-4930-9c53-54d5ccddfca3")
	)
	(fp_line
		(start -2.5 5.5)
		(end -2.5 -5.5)
		(stroke
			(width 0.1)
			(type solid)
		)
		(layer "F.Fab")
		(uuid "1ecc81ac-00a7-4316-821b-8260bd1fd0bd")
	)
	(fp_line
		(start 5 -5.5)
		(end 5 -3.25)
		(stroke
			(width 0.1)
			(type solid)
		)
		(layer "F.Fab")
		(uuid "686c4e39-bf45-455f-873e-31bbf18fe01e")
	)
	(fp_line
		(start 5 -3.25)
		(end 12.75 -3.25)
		(stroke
			(width 0.1)
			(type solid)
		)
		(layer "F.Fab")
		(uuid "89b3ded2-1329-4b0c-868f-65c96d152d7e")
	)
	(fp_line
		(start 5 3.25)
		(end 5 5.5)
		(stroke
			(width 0.1)
			(type solid)
		)
		(layer "F.Fab")
		(uuid "cdd71be9-e4a1-41ec-a775-026add977fc7")
	)
	(fp_line
		(start 5 5.5)
		(end -2.5 5.5)
		(stroke
			(width 0.1)
			(type solid)
		)
		(layer "F.Fab")
		(uuid "704c8067-158d-44c3-a7b8-d5a8abb64eb3")
	)
	(fp_line
		(start 12.75 -3.25)
		(end 12.75 3.25)
		(stroke
			(width 0.1)
			(type solid)
		)
		(layer "F.Fab")
		(uuid "1491a424-1f16-4a11-8ef4-3f671fcfd416")
	)
	(fp_line
		(start 12.75 3.25)
		(end 5 3.25)
		(stroke
			(width 0.1)
			(type solid)
		)
		(layer "F.Fab")
		(uuid "c62aecd4-0a33-416b-9e9a-f4ce079be200")
	)
	(fp_text user "${REFERENCE}"
		(at 0 -7.62 0)
		(layer "F.Fab")
		(uuid "c5b6dce1-8141-44fd-9650-223b0bbb3bc8")
		(effects
			(font
				(size 1 1)
				(thickness 0.15)
			)
		)
	)
	(pad "1" smd rect
		(at 0 0)
		(size 5.08 2.29)
		(layers "F.Cu" "F.Paste" "F.Mask")
		(uuid "e2405288-9578-4b7d-811e-78036f0d30c8")
	)
	(pad "2" smd rect
		(at 0 -4.3)
		(size 5.08 2.4)
		(layers "F.Cu" "F.Paste" "F.Mask")
		(uuid "0e339b57-7ed6-4f80-a487-7dca76824016")
	)
	(pad "2" smd rect
		(at 0 -4.3)
		(size 5.08 2.4)
		(layers "B.Cu" "B.Paste" "B.Mask")
		(uuid "c142eb92-4bc7-4705-9618-5be20fa94b87")
	)
	(pad "2" smd rect
		(at 0 4.3)
		(size 5.08 2.4)
		(layers "F.Cu" "F.Paste" "F.Mask")
		(uuid "eccb4318-c0b0-4b65-af1c-0904e7f80caf")
	)
	(pad "2" smd rect
		(at 0 4.3)
		(size 5.08 2.4)
		(layers "B.Cu" "B.Paste" "B.Mask")
		(uuid "cf0ec31c-262c-4b82-a81f-e4ac46f0c990")
	)
	(model "${LSF_KICAD_LIB}/lsf-kicad-lib.3dshapes/Conn_SMA_Molex_73251-1150.wrl"
		(offset
			(xyz 0 0 0)
		)
		(scale
			(xyz 1 1 1)
		)
		(rotate
			(xyz 0 0 0)
		)
	)
)
