(footprint "hrs-fx8c-60s-sv"
	(version 20240108)
	(generator "pcbnew")
	(generator_version "8.0")
	(layer "F.Cu")
	(descr "Hirose FX8C, https://www.hirose.com/product/en/download_file/key_name/FX8C-60S-SV%2892%29/category/Catalog/doc_file_id/31612/?file_category_id=5&item_id=05780801292&is_series=")
	(tags "Receptable")
	(property "Reference" "REF**"
		(at 0.1 -5 0)
		(layer "F.SilkS")
		(uuid "1d17d308-6478-4a40-8aaf-2d789a0dc858")
		(effects
			(font
				(size 1 1)
				(thickness 0.15)
			)
		)
	)
	(property "Value" "hrs-fx8c-60s-sv"
		(at 0.1 4.75 0)
		(layer "F.Fab")
		(uuid "cc46dc32-5c27-4d16-8eb0-08a516c8a6f3")
		(effects
			(font
				(size 1 1)
				(thickness 0.15)
			)
		)
	)
	(property "Footprint" ""
		(at 0 0 0)
		(layer "F.Fab")
		(hide yes)
		(uuid "2e385778-4471-4aea-bce4-fb05e325d3b7")
		(effects
			(font
				(size 1.27 1.27)
				(thickness 0.15)
			)
		)
	)
	(property "Datasheet" ""
		(at 0 0 0)
		(layer "F.Fab")
		(hide yes)
		(uuid "a4db1d2b-c758-423d-9ea7-aacebda1f7d2")
		(effects
			(font
				(size 1.27 1.27)
				(thickness 0.15)
			)
		)
	)
	(property "Description" ""
		(at 0 0 0)
		(layer "F.Fab")
		(hide yes)
		(uuid "e6a955b3-7941-44b5-8392-841fe1eb7fa7")
		(effects
			(font
				(size 1.27 1.27)
				(thickness 0.15)
			)
		)
	)
	(attr smd)
	(fp_line
		(start -12.65 -1.75)
		(end -12.65 3)
		(stroke
			(width 0.12)
			(type solid)
		)
		(layer "F.SilkS")
		(uuid "e30eac91-ed93-47d2-a644-2d244f21f54b")
	)
	(fp_line
		(start -11.4 -3)
		(end -12.65 -1.75)
		(stroke
			(width 0.12)
			(type solid)
		)
		(layer "F.SilkS")
		(uuid "30d4e176-3e36-45d5-b806-6a3fed791881")
	)
	(fp_line
		(start -11.4 -3)
		(end -9.4 -3)
		(stroke
			(width 0.12)
			(type solid)
		)
		(layer "F.SilkS")
		(uuid "86f2fc42-aba1-4a38-8717-66bb359c0c79")
	)
	(fp_line
		(start -9.4 3)
		(end -12.65 3)
		(stroke
			(width 0.12)
			(type solid)
		)
		(layer "F.SilkS")
		(uuid "b28e1f4c-940f-4f86-b2ce-935ef6c0f4b1")
	)
	(fp_line
		(start 0 0)
		(end -1 0)
		(stroke
			(width 0.12)
			(type solid)
		)
		(layer "F.SilkS")
		(uuid "309e14d0-be3d-424a-8eb2-ad2d04d94d2e")
	)
	(fp_line
		(start 0 0)
		(end 0 -0.5)
		(stroke
			(width 0.12)
			(type solid)
		)
		(layer "F.SilkS")
		(uuid "77888a20-cb2b-4b02-bccc-c6d6a5b41a23")
	)
	(fp_line
		(start 0 0)
		(end 0 0.5)
		(stroke
			(width 0.12)
			(type solid)
		)
		(layer "F.SilkS")
		(uuid "46d3d646-96ed-49c2-8847-1e79e549bf5a")
	)
	(fp_line
		(start 0 0)
		(end 1 0)
		(stroke
			(width 0.12)
			(type solid)
		)
		(layer "F.SilkS")
		(uuid "dd0279bd-0a95-41d1-a003-804eda93da17")
	)
	(fp_line
		(start 9.6 -3)
		(end 12.85 -3)
		(stroke
			(width 0.12)
			(type solid)
		)
		(layer "F.SilkS")
		(uuid "3a837045-a086-45e6-86d4-346b32719660")
	)
	(fp_line
		(start 12.85 -3)
		(end 12.85 3)
		(stroke
			(width 0.12)
			(type solid)
		)
		(layer "F.SilkS")
		(uuid "2779f8ec-e0ce-47c7-909a-b3fe60922f4a")
	)
	(fp_line
		(start 12.85 3)
		(end 9.6 3)
		(stroke
			(width 0.12)
			(type solid)
		)
		(layer "F.SilkS")
		(uuid "b892bc94-2d7c-415c-b4e2-b46f14e38c73")
	)
	(fp_line
		(start -12.75 -3.5)
		(end -12.75 3.45)
		(stroke
			(width 0.05)
			(type solid)
		)
		(layer "F.CrtYd")
		(uuid "ef3d1a94-dc68-42ae-8929-048c375959aa")
	)
	(fp_line
		(start -12.75 3.45)
		(end 12.95 3.45)
		(stroke
			(width 0.05)
			(type solid)
		)
		(layer "F.CrtYd")
		(uuid "3d0e10b0-3e8b-4045-b39d-1fe36b1e6195")
	)
	(fp_line
		(start 12.95 -3.5)
		(end -12.75 -3.5)
		(stroke
			(width 0.05)
			(type solid)
		)
		(layer "F.CrtYd")
		(uuid "1fdb0d89-994e-45be-840c-3e51172eaf66")
	)
	(fp_line
		(start 12.95 3.45)
		(end 12.95 -3.5)
		(stroke
			(width 0.05)
			(type solid)
		)
		(layer "F.CrtYd")
		(uuid "f5012112-0348-4af1-93a9-03c2f38b022c")
	)
	(fp_line
		(start -12.65 -1.75)
		(end -11.4 -3)
		(stroke
			(width 0.1)
			(type solid)
		)
		(layer "F.Fab")
		(uuid "97ad59bc-1c74-4a46-8f01-140b9a8a5442")
	)
	(fp_line
		(start -12.65 3)
		(end -12.65 -1.75)
		(stroke
			(width 0.1)
			(type solid)
		)
		(layer "F.Fab")
		(uuid "2c7b21e0-8497-4fac-a1bf-3a6c25385905")
	)
	(fp_line
		(start -11.4 -3)
		(end 12.85 -3)
		(stroke
			(width 0.1)
			(type solid)
		)
		(layer "F.Fab")
		(uuid "8e6c144d-f9e1-4785-b01a-614677b9b418")
	)
	(fp_line
		(start 12.85 -3)
		(end 12.85 3)
		(stroke
			(width 0.1)
			(type solid)
		)
		(layer "F.Fab")
		(uuid "c9774cfd-b4da-4adb-b055-dbbab39c37fa")
	)
	(fp_line
		(start 12.85 3)
		(end -12.65 3)
		(stroke
			(width 0.1)
			(type solid)
		)
		(layer "F.Fab")
		(uuid "80e08baa-f14f-443c-aedc-29f9f57cc93c")
	)
	(fp_text user "${REFERENCE}"
		(at 0.1 -5 0)
		(layer "F.Fab")
		(uuid "336c51d8-055b-4a93-845b-798b045c47c5")
		(effects
			(font
				(size 1 1)
				(thickness 0.15)
			)
		)
	)
	(pad "" np_thru_hole circle
		(at -11 -1.5)
		(size 1.1 1.1)
		(drill 1.1)
		(layers "*.Cu" "*.Mask" "F.SilkS")
		(uuid "e7229390-d215-45bf-8517-4ca51a1044bd")
	)
	(pad "" np_thru_hole circle
		(at 11.2 -1.5)
		(size 0.7 0.7)
		(drill 0.7)
		(layers "*.Cu" "*.Mask" "F.SilkS")
		(uuid "66a2a535-8a58-407c-9515-376552b5c4fa")
	)
	(pad "1" smd rect
		(at -8.6 -2.25)
		(size 0.35 2.5)
		(layers "F.Cu" "F.Paste" "F.Mask")
		(uuid "154b2408-841d-4ceb-98f3-8e1e1e4da52d")
	)
	(pad "2" smd rect
		(at -8 -2.25)
		(size 0.35 2.5)
		(layers "F.Cu" "F.Paste" "F.Mask")
		(uuid "529a8b2f-3161-4303-8915-29e03c58c371")
	)
	(pad "3" smd rect
		(at -7.4 -2.25)
		(size 0.35 2.5)
		(layers "F.Cu" "F.Paste" "F.Mask")
		(uuid "d3e24cae-ee5b-41f9-ae21-3adcfa3ba874")
	)
	(pad "4" smd rect
		(at -6.8 -2.25)
		(size 0.35 2.5)
		(layers "F.Cu" "F.Paste" "F.Mask")
		(uuid "71e36e7b-b372-48dd-86f8-7be412c5a36f")
	)
	(pad "5" smd rect
		(at -6.2 -2.25)
		(size 0.35 2.5)
		(layers "F.Cu" "F.Paste" "F.Mask")
		(uuid "cdd2e7a8-69b9-4301-a280-f0380c4d5dde")
	)
	(pad "6" smd rect
		(at -5.6 -2.25)
		(size 0.35 2.5)
		(layers "F.Cu" "F.Paste" "F.Mask")
		(uuid "a82f4534-70bd-4cca-ab03-7e500a3ebd05")
	)
	(pad "7" smd rect
		(at -5 -2.25)
		(size 0.35 2.5)
		(layers "F.Cu" "F.Paste" "F.Mask")
		(uuid "34a9065f-12b4-401e-a077-03ba69de9d8e")
	)
	(pad "8" smd rect
		(at -4.4 -2.25)
		(size 0.35 2.5)
		(layers "F.Cu" "F.Paste" "F.Mask")
		(uuid "6bc0d673-6c2e-4691-86e5-5b0676529651")
	)
	(pad "9" smd rect
		(at -3.8 -2.25)
		(size 0.35 2.5)
		(layers "F.Cu" "F.Paste" "F.Mask")
		(uuid "69097afb-9693-42d9-be5a-5de68f330598")
	)
	(pad "10" smd rect
		(at -3.2 -2.25)
		(size 0.35 2.5)
		(layers "F.Cu" "F.Paste" "F.Mask")
		(uuid "de29af8d-a35d-41ba-99fb-c6dbb3ea5eae")
	)
	(pad "11" smd rect
		(at -2.6 -2.25)
		(size 0.35 2.5)
		(layers "F.Cu" "F.Paste" "F.Mask")
		(uuid "76c5442a-01ac-4d39-908f-a82c24e4af3e")
	)
	(pad "12" smd rect
		(at -2 -2.25)
		(size 0.35 2.5)
		(layers "F.Cu" "F.Paste" "F.Mask")
		(uuid "6a456715-f2c2-4b76-be40-2ec46584da32")
	)
	(pad "13" smd rect
		(at -1.4 -2.25)
		(size 0.35 2.5)
		(layers "F.Cu" "F.Paste" "F.Mask")
		(uuid "2edf1cf0-f76b-4b85-bd3a-aa3b92823fcb")
	)
	(pad "14" smd rect
		(at -0.8 -2.25)
		(size 0.35 2.5)
		(layers "F.Cu" "F.Paste" "F.Mask")
		(uuid "57532975-10e4-4956-a2e0-cb1d9af5f199")
	)
	(pad "15" smd rect
		(at -0.2 -2.25)
		(size 0.35 2.5)
		(layers "F.Cu" "F.Paste" "F.Mask")
		(uuid "49b2b813-0b4c-4263-bb06-2ebb88fdcd8b")
	)
	(pad "16" smd rect
		(at 0.4 -2.25)
		(size 0.35 2.5)
		(layers "F.Cu" "F.Paste" "F.Mask")
		(uuid "7eb7f74e-feac-47a6-b2f5-6a73800dbeb6")
	)
	(pad "17" smd rect
		(at 1 -2.25)
		(size 0.35 2.5)
		(layers "F.Cu" "F.Paste" "F.Mask")
		(uuid "bf34da57-dc3d-4ece-b113-5149457754c9")
	)
	(pad "18" smd rect
		(at 1.6 -2.25)
		(size 0.35 2.5)
		(layers "F.Cu" "F.Paste" "F.Mask")
		(uuid "fcb2ee83-0cd1-45ab-8980-ad7932013e4c")
	)
	(pad "19" smd rect
		(at 2.2 -2.25)
		(size 0.35 2.5)
		(layers "F.Cu" "F.Paste" "F.Mask")
		(uuid "ebe4f8a3-e07a-4a9c-a78f-11e8a3bc258b")
	)
	(pad "20" smd rect
		(at 2.8 -2.25)
		(size 0.35 2.5)
		(layers "F.Cu" "F.Paste" "F.Mask")
		(uuid "7f2fe2df-ba2f-4275-9fcb-b7ed8bcef68e")
	)
	(pad "21" smd rect
		(at 3.4 -2.25)
		(size 0.35 2.5)
		(layers "F.Cu" "F.Paste" "F.Mask")
		(uuid "b4398263-abda-4334-b43d-ae95e0d4aa5a")
	)
	(pad "22" smd rect
		(at 4 -2.25)
		(size 0.35 2.5)
		(layers "F.Cu" "F.Paste" "F.Mask")
		(uuid "c06e7d3f-4086-4c4e-a76d-3aa0312d31dc")
	)
	(pad "23" smd rect
		(at 4.6 -2.25)
		(size 0.35 2.5)
		(layers "F.Cu" "F.Paste" "F.Mask")
		(uuid "b7e0edac-e9a4-46ed-8ee2-2052feacf553")
	)
	(pad "24" smd rect
		(at 5.2 -2.25)
		(size 0.35 2.5)
		(layers "F.Cu" "F.Paste" "F.Mask")
		(uuid "b116e757-eaa5-43f5-8f0d-13b4ca462987")
	)
	(pad "25" smd rect
		(at 5.8 -2.25)
		(size 0.35 2.5)
		(layers "F.Cu" "F.Paste" "F.Mask")
		(uuid "79d73c59-278f-460a-b109-7e9eae289b70")
	)
	(pad "26" smd rect
		(at 6.4 -2.25)
		(size 0.35 2.5)
		(layers "F.Cu" "F.Paste" "F.Mask")
		(uuid "a73e8176-3fc4-49b7-bd92-0804bcf82d83")
	)
	(pad "27" smd rect
		(at 7 -2.25)
		(size 0.35 2.5)
		(layers "F.Cu" "F.Paste" "F.Mask")
		(uuid "0d9f84d1-16f8-4009-90f2-5d4ad6c8401e")
	)
	(pad "28" smd rect
		(at 7.6 -2.25)
		(size 0.35 2.5)
		(layers "F.Cu" "F.Paste" "F.Mask")
		(uuid "3523257f-57e7-4232-a802-c53fd34e2bae")
	)
	(pad "29" smd rect
		(at 8.2 -2.25)
		(size 0.35 2.5)
		(layers "F.Cu" "F.Paste" "F.Mask")
		(uuid "07158ec4-0e14-4aba-9401-fea4a344d203")
	)
	(pad "30" smd rect
		(at 8.8 -2.25)
		(size 0.35 2.5)
		(layers "F.Cu" "F.Paste" "F.Mask")
		(uuid "337ffbf6-cc23-4d34-bdd4-bf53a92b6834")
	)
	(pad "31" smd rect
		(at 8.8 2.25)
		(size 0.35 2.5)
		(layers "F.Cu" "F.Paste" "F.Mask")
		(uuid "c1c57c0e-1e8a-4e5c-89e8-840845d9051e")
	)
	(pad "32" smd rect
		(at 8.2 2.25)
		(size 0.35 2.5)
		(layers "F.Cu" "F.Paste" "F.Mask")
		(uuid "0e588ca5-11e2-448a-9eac-9063f2a00a56")
	)
	(pad "33" smd rect
		(at 7.6 2.25)
		(size 0.35 2.5)
		(layers "F.Cu" "F.Paste" "F.Mask")
		(uuid "cf6996fd-268a-48c8-9904-9802a02629ef")
	)
	(pad "34" smd rect
		(at 7 2.25)
		(size 0.35 2.5)
		(layers "F.Cu" "F.Paste" "F.Mask")
		(uuid "20d55535-e5d7-4807-9c96-48ae6b84b9e2")
	)
	(pad "35" smd rect
		(at 6.4 2.25)
		(size 0.35 2.5)
		(layers "F.Cu" "F.Paste" "F.Mask")
		(uuid "0c0d9cdd-bad3-4223-bc8d-287c4860701f")
	)
	(pad "36" smd rect
		(at 5.8 2.25)
		(size 0.35 2.5)
		(layers "F.Cu" "F.Paste" "F.Mask")
		(uuid "771bd386-964d-46a6-8bd4-5c993dabe78c")
	)
	(pad "37" smd rect
		(at 5.2 2.25)
		(size 0.35 2.5)
		(layers "F.Cu" "F.Paste" "F.Mask")
		(uuid "c600cdb0-7cb0-4854-be81-9aea383be999")
	)
	(pad "38" smd rect
		(at 4.6 2.25)
		(size 0.35 2.5)
		(layers "F.Cu" "F.Paste" "F.Mask")
		(uuid "3db81370-a000-4d9f-8dfd-6473c9f587ff")
	)
	(pad "39" smd rect
		(at 4 2.25)
		(size 0.35 2.5)
		(layers "F.Cu" "F.Paste" "F.Mask")
		(uuid "9ff008a8-60f2-47c2-ae63-e96608857e67")
	)
	(pad "40" smd rect
		(at 3.4 2.25)
		(size 0.35 2.5)
		(layers "F.Cu" "F.Paste" "F.Mask")
		(uuid "02613b1f-0c06-4acc-8207-dfbb6280d6b0")
	)
	(pad "41" smd rect
		(at 2.8 2.25)
		(size 0.35 2.5)
		(layers "F.Cu" "F.Paste" "F.Mask")
		(uuid "6b9d3a6d-53df-4446-881e-7c5517d4c222")
	)
	(pad "42" smd rect
		(at 2.2 2.25)
		(size 0.35 2.5)
		(layers "F.Cu" "F.Paste" "F.Mask")
		(uuid "0e27366e-b074-4d1b-9942-fbacd3c21635")
	)
	(pad "43" smd rect
		(at 1.6 2.25)
		(size 0.35 2.5)
		(layers "F.Cu" "F.Paste" "F.Mask")
		(uuid "3eaa8f1d-8d4e-498e-9bca-3f52aac024ae")
	)
	(pad "44" smd rect
		(at 1 2.25)
		(size 0.35 2.5)
		(layers "F.Cu" "F.Paste" "F.Mask")
		(uuid "cd03942a-f16c-4151-8900-6d29aa892fe1")
	)
	(pad "45" smd rect
		(at 0.4 2.25)
		(size 0.35 2.5)
		(layers "F.Cu" "F.Paste" "F.Mask")
		(uuid "c1e0e4a6-d9aa-4cce-ab86-8255d80ac1b9")
	)
	(pad "46" smd rect
		(at -0.2 2.25)
		(size 0.35 2.5)
		(layers "F.Cu" "F.Paste" "F.Mask")
		(uuid "ec38c574-49ce-4ce1-84ec-f0438bf54375")
	)
	(pad "47" smd rect
		(at -0.8 2.25)
		(size 0.35 2.5)
		(layers "F.Cu" "F.Paste" "F.Mask")
		(uuid "2188d644-4280-4c05-abe4-fd58066c6df6")
	)
	(pad "48" smd rect
		(at -1.4 2.25)
		(size 0.35 2.5)
		(layers "F.Cu" "F.Paste" "F.Mask")
		(uuid "b1496ff9-30d2-4ff5-b9f9-866a49a1bc7d")
	)
	(pad "49" smd rect
		(at -2 2.25)
		(size 0.35 2.5)
		(layers "F.Cu" "F.Paste" "F.Mask")
		(uuid "f49f917f-ed97-421c-8a47-4c60b7023cfe")
	)
	(pad "50" smd rect
		(at -2.6 2.25)
		(size 0.35 2.5)
		(layers "F.Cu" "F.Paste" "F.Mask")
		(uuid "a443ae75-edc4-4287-9727-bbf69e7fe5ff")
	)
	(pad "51" smd rect
		(at -3.2 2.25)
		(size 0.35 2.5)
		(layers "F.Cu" "F.Paste" "F.Mask")
		(uuid "24fa9bdf-28ec-4655-b0e1-51a39e65de37")
	)
	(pad "52" smd rect
		(at -3.8 2.25)
		(size 0.35 2.5)
		(layers "F.Cu" "F.Paste" "F.Mask")
		(uuid "807193e7-0e27-4195-8443-05d2f3cc67f3")
	)
	(pad "53" smd rect
		(at -4.4 2.25)
		(size 0.35 2.5)
		(layers "F.Cu" "F.Paste" "F.Mask")
		(uuid "2c1be4ba-bb35-4ca3-b28e-847258cde44d")
	)
	(pad "54" smd rect
		(at -5 2.25)
		(size 0.35 2.5)
		(layers "F.Cu" "F.Paste" "F.Mask")
		(uuid "4ea6ef24-06b3-42a8-98df-035d34699254")
	)
	(pad "55" smd rect
		(at -5.6 2.25)
		(size 0.35 2.5)
		(layers "F.Cu" "F.Paste" "F.Mask")
		(uuid "17e5c876-9ac8-402e-8823-e620ae6bfb38")
	)
	(pad "56" smd rect
		(at -6.2 2.25)
		(size 0.35 2.5)
		(layers "F.Cu" "F.Paste" "F.Mask")
		(uuid "c7cdc12a-3b50-461e-9799-62ce4c292c14")
	)
	(pad "57" smd rect
		(at -6.8 2.25)
		(size 0.35 2.5)
		(layers "F.Cu" "F.Paste" "F.Mask")
		(uuid "448c5035-f7fd-4956-a46f-0b2bd1775514")
	)
	(pad "58" smd rect
		(at -7.4 2.25)
		(size 0.35 2.5)
		(layers "F.Cu" "F.Paste" "F.Mask")
		(uuid "b29008eb-7507-4b0b-bf20-fa35ee3407b4")
	)
	(pad "59" smd rect
		(at -8 2.25)
		(size 0.35 2.5)
		(layers "F.Cu" "F.Paste" "F.Mask")
		(uuid "251ccbb0-f8da-4d07-a309-3e1129fc0990")
	)
	(pad "60" smd rect
		(at -8.6 2.25)
		(size 0.35 2.5)
		(layers "F.Cu" "F.Paste" "F.Mask")
		(uuid "a33fff27-209b-4347-98b9-3d8f07c8b946")
	)
	(model "${LSF_KICAD_LIB}/lsf-kicad-lib.3dshapes/hrs-fx8c-60s-sv.wrl"
		(offset
			(xyz 0 0 0)
		)
		(scale
			(xyz 1 1 1)
		)
		(rotate
			(xyz 0 0 0)
		)
	)
)
