(footprint "KEYSTONE_3098"
	(version 20240108)
	(generator "pcbnew")
	(generator_version "8.0")
	(layer "F.Cu")
	(descr "Battery holder, https://www.keyelco.com/product.cfm/product_id/769")
	(tags "Battery holder")
	(property "Reference" "REF**"
		(at 0 -6.35 0)
		(layer "F.SilkS")
		(uuid "0c56ad89-20b9-4dc9-ba1a-7966feaf4501")
		(effects
			(font
				(size 1 1)
				(thickness 0.15)
			)
		)
	)
	(property "Value" "KEYSTONE_3098"
		(at 0 5.588 0)
		(layer "F.Fab")
		(uuid "fb969955-fae6-482b-9901-b0f3291792cf")
		(effects
			(font
				(size 1 1)
				(thickness 0.15)
			)
		)
	)
	(property "Footprint" ""
		(at 0 0 0)
		(layer "F.Fab")
		(hide yes)
		(uuid "0857cd80-5adf-4194-aa2b-2649742cb0e8")
		(effects
			(font
				(size 1.27 1.27)
				(thickness 0.15)
			)
		)
	)
	(property "Datasheet" ""
		(at 0 0 0)
		(layer "F.Fab")
		(hide yes)
		(uuid "b0d98caf-ad12-4d26-82bc-5db6f2d3b34b")
		(effects
			(font
				(size 1.27 1.27)
				(thickness 0.15)
			)
		)
	)
	(property "Description" ""
		(at 0 0 0)
		(layer "F.Fab")
		(hide yes)
		(uuid "31b6c049-e804-472f-bdc1-435ff81b95e8")
		(effects
			(font
				(size 1.27 1.27)
				(thickness 0.15)
			)
		)
	)
	(attr smd)
	(fp_line
		(start -5.842 -2.794)
		(end -4.064 -3.556)
		(stroke
			(width 0.12)
			(type solid)
		)
		(layer "F.SilkS")
		(uuid "9746964e-aba8-4077-8b1c-104b5c796757")
	)
	(fp_line
		(start -5.842 2.794)
		(end -5.842 -2.794)
		(stroke
			(width 0.12)
			(type solid)
		)
		(layer "F.SilkS")
		(uuid "12248c85-44d8-4a82-9a7d-7a5707765dc6")
	)
	(fp_line
		(start -4.064 -3.556)
		(end -4.064 -5.08)
		(stroke
			(width 0.12)
			(type solid)
		)
		(layer "F.SilkS")
		(uuid "8ed31167-b291-4ad6-81d7-23a2239c5e69")
	)
	(fp_line
		(start -3.81 2.794)
		(end -5.842 2.794)
		(stroke
			(width 0.12)
			(type solid)
		)
		(layer "F.SilkS")
		(uuid "3cf6e41b-8227-4a36-a275-5e59cea15f16")
	)
	(fp_line
		(start -3.048 3.81)
		(end -3.81 2.794)
		(stroke
			(width 0.12)
			(type solid)
		)
		(layer "F.SilkS")
		(uuid "80f4cc47-f1db-446e-983d-ef736c078e42")
	)
	(fp_line
		(start 3.048 3.81)
		(end -3.048 3.81)
		(stroke
			(width 0.12)
			(type solid)
		)
		(layer "F.SilkS")
		(uuid "9b610a47-bf28-4757-a5ed-6127c54d0fdd")
	)
	(fp_line
		(start 3.048 3.81)
		(end 3.81 2.794)
		(stroke
			(width 0.12)
			(type solid)
		)
		(layer "F.SilkS")
		(uuid "fa1e7186-4f1e-43c0-bd2b-271157226479")
	)
	(fp_line
		(start 3.81 2.794)
		(end 5.842 2.794)
		(stroke
			(width 0.12)
			(type solid)
		)
		(layer "F.SilkS")
		(uuid "9ec38fea-b93b-4029-9baa-478607dcfb61")
	)
	(fp_line
		(start 4.064 -3.556)
		(end 4.064 -5.08)
		(stroke
			(width 0.12)
			(type solid)
		)
		(layer "F.SilkS")
		(uuid "05f4eff1-02fe-43c1-9ad8-bce808bd27c4")
	)
	(fp_line
		(start 5.842 -2.794)
		(end 4.064 -3.556)
		(stroke
			(width 0.12)
			(type solid)
		)
		(layer "F.SilkS")
		(uuid "73e599b4-282f-4c2d-800b-eab0020ec38e")
	)
	(fp_line
		(start 5.842 2.794)
		(end 5.842 -2.794)
		(stroke
			(width 0.12)
			(type solid)
		)
		(layer "F.SilkS")
		(uuid "00b83ee2-7f02-4311-95f5-9ed988aa1ace")
	)
	(fp_arc
		(start -4.064 -5.08)
		(mid -3.505403 -5.814351)
		(end -2.64859 -5.472045)
		(stroke
			(width 0.12)
			(type solid)
		)
		(layer "F.SilkS")
		(uuid "457cbb83-27a0-40ce-9564-83ca8b90cc35")
	)
	(fp_arc
		(start 2.64859 -5.472045)
		(mid 3.505403 -5.814351)
		(end 4.064 -5.08)
		(stroke
			(width 0.12)
			(type solid)
		)
		(layer "F.SilkS")
		(uuid "a335600f-9ea9-4764-9365-d88a12f99881")
	)
	(fp_arc
		(start 2.667 -5.461)
		(mid 0 -4.234354)
		(end -2.667 -5.461)
		(stroke
			(width 0.12)
			(type solid)
		)
		(layer "F.SilkS")
		(uuid "61b01b10-88cf-427d-abab-2f7cd7870871")
	)
	(fp_line
		(start -6 -7)
		(end -6 4)
		(stroke
			(width 0.05)
			(type solid)
		)
		(layer "F.CrtYd")
		(uuid "534d131b-fa77-404d-a3be-44fb0807597e")
	)
	(fp_line
		(start -6 4)
		(end 6 4)
		(stroke
			(width 0.05)
			(type solid)
		)
		(layer "F.CrtYd")
		(uuid "2936af99-b504-4534-b20f-bd5c4e1ab04a")
	)
	(fp_line
		(start 6 -7)
		(end -6 -7)
		(stroke
			(width 0.05)
			(type solid)
		)
		(layer "F.CrtYd")
		(uuid "c35022db-583d-43b7-9655-3684f92f1762")
	)
	(fp_line
		(start 6 4)
		(end 6 -7)
		(stroke
			(width 0.05)
			(type solid)
		)
		(layer "F.CrtYd")
		(uuid "a6ac6f7a-1b0a-4ded-8770-25fa31e00882")
	)
	(fp_line
		(start -5.75 -5.75)
		(end -5.75 2.7)
		(stroke
			(width 0.1)
			(type solid)
		)
		(layer "F.Fab")
		(uuid "80e74d16-46ff-42ee-9acd-3629fe1a0469")
	)
	(fp_line
		(start -5.75 2.7)
		(end -3.8 2.7)
		(stroke
			(width 0.1)
			(type solid)
		)
		(layer "F.Fab")
		(uuid "27c080b2-2e86-4431-a5ca-a10a43ea5512")
	)
	(fp_line
		(start -3.8 2.7)
		(end -3 3.7)
		(stroke
			(width 0.1)
			(type solid)
		)
		(layer "F.Fab")
		(uuid "7611d01c-0ffa-4417-87ff-f723074e88a9")
	)
	(fp_line
		(start -3 3.7)
		(end 3 3.7)
		(stroke
			(width 0.1)
			(type solid)
		)
		(layer "F.Fab")
		(uuid "fd5b893b-201b-4909-ad63-7075c0434de3")
	)
	(fp_line
		(start 3 3.7)
		(end 3.8 2.7)
		(stroke
			(width 0.1)
			(type solid)
		)
		(layer "F.Fab")
		(uuid "bc53442b-0416-4af3-8307-92b08462562a")
	)
	(fp_line
		(start 3.8 2.7)
		(end 5.75 2.7)
		(stroke
			(width 0.1)
			(type solid)
		)
		(layer "F.Fab")
		(uuid "7e944e24-688d-4dc5-8ac7-8d34d0ad03f6")
	)
	(fp_line
		(start 5.75 -5.75)
		(end -5.75 -5.75)
		(stroke
			(width 0.1)
			(type solid)
		)
		(layer "F.Fab")
		(uuid "5593a9e5-ca07-469b-96e3-4700de92968e")
	)
	(fp_line
		(start 5.75 2.7)
		(end 5.75 -5.75)
		(stroke
			(width 0.1)
			(type solid)
		)
		(layer "F.Fab")
		(uuid "4f878bc2-65f6-41f1-9060-bc121fcfa814")
	)
	(fp_text user "${REFERENCE}"
		(at 0 0 0)
		(layer "F.Fab")
		(uuid "13e62dbe-4e1e-4596-898d-a9a83c41f443")
		(effects
			(font
				(size 1 1)
				(thickness 0.15)
			)
		)
	)
	(pad "1" smd rect
		(at -4.699 0)
		(size 1.78 5.08)
		(layers "F.Cu" "F.Paste" "F.Mask")
		(uuid "dc63d731-f4c3-446f-bb3f-493e994aa776")
	)
	(pad "1" smd rect
		(at 4.699 0)
		(size 1.78 5.08)
		(layers "F.Cu" "F.Paste" "F.Mask")
		(uuid "acf61958-95e7-4a17-b2cf-00790ccb98f3")
	)
	(pad "2" smd rect
		(at 0 0)
		(size 3.96 3.96)
		(layers "F.Cu" "F.Paste" "F.Mask")
		(uuid "819dd792-0eca-4da0-9b32-3f5f4263e087")
	)
	(model "${LSF_KICAD_LIB}/lsf-kicad-lib.3dshapes/KEYSTONE_3098.wrl"
		(offset
			(xyz 0 0 0)
		)
		(scale
			(xyz 1 1 1)
		)
		(rotate
			(xyz 0 0 0)
		)
	)
)
