(footprint "KT1612"
	(version 20240108)
	(generator "pcbnew")
	(generator_version "8.0")
	(layer "F.Cu")
	(descr "KT1612, https://global.kyocera.com/prdct/electro/product/pdf/kt1612_e.pdf")
	(tags "TCXO VCTCXO")
	(property "Reference" "REF**"
		(at 0 -2 180)
		(layer "F.SilkS")
		(uuid "49e469a6-c6cd-43ca-95e6-f491d4401b98")
		(effects
			(font
				(size 1 1)
				(thickness 0.15)
			)
		)
	)
	(property "Value" "KT1612"
		(at 0 2 0)
		(layer "F.Fab")
		(uuid "3923b068-df62-4acc-afe6-0ca1bdba7328")
		(effects
			(font
				(size 1 1)
				(thickness 0.15)
			)
		)
	)
	(property "Footprint" ""
		(at 0 0 0)
		(layer "F.Fab")
		(hide yes)
		(uuid "41dec940-6d5a-4f4d-98b7-e2056545efc0")
		(effects
			(font
				(size 1.27 1.27)
				(thickness 0.15)
			)
		)
	)
	(property "Datasheet" ""
		(at 0 0 0)
		(layer "F.Fab")
		(hide yes)
		(uuid "bb06a907-a525-499e-9e91-5c194d14a887")
		(effects
			(font
				(size 1.27 1.27)
				(thickness 0.15)
			)
		)
	)
	(property "Description" ""
		(at 0 0 0)
		(layer "F.Fab")
		(hide yes)
		(uuid "1ed3379c-b629-4998-9f0c-72948b8932af")
		(effects
			(font
				(size 1.27 1.27)
				(thickness 0.15)
			)
		)
	)
	(attr smd)
	(fp_line
		(start -1.3 1.1)
		(end -1.3 0.3)
		(stroke
			(width 0.12)
			(type solid)
		)
		(layer "F.SilkS")
		(uuid "24a43070-6c90-4534-a00b-416aca2bb8f4")
	)
	(fp_line
		(start -1.15 -0.95)
		(end 1.15 -0.95)
		(stroke
			(width 0.12)
			(type solid)
		)
		(layer "F.SilkS")
		(uuid "010470fa-ca7d-4183-90d8-bcfe48b97ff8")
	)
	(fp_line
		(start -1.15 0.15)
		(end -1.15 -0.95)
		(stroke
			(width 0.12)
			(type solid)
		)
		(layer "F.SilkS")
		(uuid "a5b58279-3c21-4179-8190-10148193e638")
	)
	(fp_line
		(start -0.5 1.1)
		(end -1.3 1.1)
		(stroke
			(width 0.12)
			(type solid)
		)
		(layer "F.SilkS")
		(uuid "0048a79a-3e35-426a-af3a-a66b2b3aa055")
	)
	(fp_line
		(start 1.15 -0.95)
		(end 1.15 0.95)
		(stroke
			(width 0.12)
			(type solid)
		)
		(layer "F.SilkS")
		(uuid "4434fe8f-e120-492d-8b78-79eec2162111")
	)
	(fp_line
		(start 1.15 0.95)
		(end -0.35 0.95)
		(stroke
			(width 0.12)
			(type solid)
		)
		(layer "F.SilkS")
		(uuid "01b2e235-a990-46d0-9a67-87f3009976a8")
	)
	(fp_line
		(start -1.3 -1.1)
		(end 1.3 -1.1)
		(stroke
			(width 0.05)
			(type solid)
		)
		(layer "F.CrtYd")
		(uuid "b9f7e2a3-df2f-4afa-a328-51a6a278b6f6")
	)
	(fp_line
		(start -1.3 1.1)
		(end -1.3 -1.1)
		(stroke
			(width 0.05)
			(type solid)
		)
		(layer "F.CrtYd")
		(uuid "41c8e6ee-1ba6-40d4-8a61-05bd51024285")
	)
	(fp_line
		(start 1.3 -1.1)
		(end 1.3 1.1)
		(stroke
			(width 0.05)
			(type solid)
		)
		(layer "F.CrtYd")
		(uuid "0869ae1b-9702-4d24-a110-a1338d4c5ba1")
	)
	(fp_line
		(start 1.3 1.1)
		(end -1.3 1.1)
		(stroke
			(width 0.05)
			(type solid)
		)
		(layer "F.CrtYd")
		(uuid "b11c10b2-cadf-498b-966e-0f9e242fc3aa")
	)
	(fp_line
		(start -1.05 -0.85)
		(end 1.05 -0.85)
		(stroke
			(width 0.1)
			(type solid)
		)
		(layer "F.Fab")
		(uuid "05fe7f61-a290-41fe-949d-13b58b3e8dcc")
	)
	(fp_line
		(start -1.05 0.15)
		(end -1.05 -0.85)
		(stroke
			(width 0.1)
			(type solid)
		)
		(layer "F.Fab")
		(uuid "168e7e1e-36dd-4e39-b181-2dd188185d50")
	)
	(fp_line
		(start -0.4 0.85)
		(end -1.05 0.15)
		(stroke
			(width 0.1)
			(type solid)
		)
		(layer "F.Fab")
		(uuid "4763147c-234e-4ccd-b1db-8e00869ed0d4")
	)
	(fp_line
		(start 1.05 -0.85)
		(end 1.05 0.85)
		(stroke
			(width 0.1)
			(type solid)
		)
		(layer "F.Fab")
		(uuid "58e113b1-5764-46ae-a26c-a09c753e2956")
	)
	(fp_line
		(start 1.05 0.85)
		(end -0.4 0.85)
		(stroke
			(width 0.1)
			(type solid)
		)
		(layer "F.Fab")
		(uuid "5e661ea0-4a79-4fe3-91c8-49e4b2b77c77")
	)
	(fp_text user "${REFERENCE}"
		(at 3.42 0 0)
		(layer "F.Fab")
		(uuid "94eeef55-4c9f-4ba5-a41f-8ebff896009b")
		(effects
			(font
				(size 1 1)
				(thickness 0.15)
			)
		)
	)
	(pad "1" smd rect
		(at -0.7 0.475)
		(size 0.5 0.55)
		(layers "F.Cu" "F.Paste" "F.Mask")
		(solder_mask_margin 0.1)
		(uuid "d324a6b4-e131-4bb5-98ad-9c0881d95fdc")
	)
	(pad "2" smd rect
		(at 0.7 0.475)
		(size 0.5 0.55)
		(layers "F.Cu" "F.Paste" "F.Mask")
		(solder_mask_margin 0.1)
		(uuid "49c350ed-1220-4ee8-afd9-64e99c8bb641")
	)
	(pad "3" smd rect
		(at 0.7 -0.475)
		(size 0.5 0.55)
		(layers "F.Cu" "F.Paste" "F.Mask")
		(solder_mask_margin 0.1)
		(uuid "59196465-a496-45d6-843b-97e5d41eb13b")
	)
	(pad "4" smd rect
		(at -0.7 -0.475)
		(size 0.5 0.55)
		(layers "F.Cu" "F.Paste" "F.Mask")
		(solder_mask_margin 0.1)
		(uuid "d1fc16e7-c2ef-458f-9586-156b0c8a02b4")
	)
	(model "${LSF_KICAD_LIB}/lsf-kicad-lib.3dshapes/KT1612.wrl"
		(offset
			(xyz 0 0 0)
		)
		(scale
			(xyz 1 1 1)
		)
		(rotate
			(xyz 0 0 0)
		)
	)
)
