(footprint "lsf-logo-20x11_Mask"
	(version 20240108)
	(generator "pcbnew")
	(generator_version "8.0")
	(layer "F.Cu")
	(descr "Libre Space Foundation logo 20x11mm")
	(tags "lsf logo libre space foundation")
	(property "Reference" "REF**"
		(at 0 0 0)
		(layer "F.SilkS")
		(hide yes)
		(uuid "b08e7d7a-5249-4326-9a96-bedcc889cc09")
		(effects
			(font
				(size 1 1)
				(thickness 0.15)
			)
		)
	)
	(property "Value" "lsf-logo-20x11_Mask"
		(at 0.75 0 0)
		(layer "F.Fab")
		(hide yes)
		(uuid "7fa92b0d-ed59-4d49-ba8d-d48bf9269227")
		(effects
			(font
				(size 1 1)
				(thickness 0.15)
			)
		)
	)
	(property "Footprint" ""
		(at 0 0 0)
		(layer "F.Fab")
		(hide yes)
		(uuid "3996659f-1fa6-4c8f-b769-43214c293349")
		(effects
			(font
				(size 1.27 1.27)
				(thickness 0.15)
			)
		)
	)
	(property "Datasheet" ""
		(at 0 0 0)
		(layer "F.Fab")
		(hide yes)
		(uuid "aedcfde9-a788-44eb-8752-5dfbc7732896")
		(effects
			(font
				(size 1.27 1.27)
				(thickness 0.15)
			)
		)
	)
	(property "Description" ""
		(at 0 0 0)
		(layer "F.Fab")
		(hide yes)
		(uuid "38c3d843-56f5-4432-821e-be6edc266048")
		(effects
			(font
				(size 1.27 1.27)
				(thickness 0.15)
			)
		)
	)
	(attr exclude_from_pos_files exclude_from_bom)
	(fp_poly
		(pts
			(xy 5.388611 -2.750438) (xy 5.434371 -2.74296) (xy 5.502545 -2.730132) (xy 5.587808 -2.712954) (xy 5.681847 -2.693072)
			(xy 6.126516 -2.590727) (xy 6.539322 -2.482434) (xy 6.92185 -2.367561) (xy 7.275682 -2.245476) (xy 7.602403 -2.115549)
			(xy 7.903597 -1.977146) (xy 8.180849 -1.829637) (xy 8.43574 -1.672391) (xy 8.669857 -1.504774) (xy 8.678333 -1.498217)
			(xy 8.771709 -1.420149) (xy 8.873787 -1.325338) (xy 8.977617 -1.221051) (xy 9.07625 -1.114558) (xy 9.162739 -1.013126)
			(xy 9.230133 -0.924022) (xy 9.237043 -0.913852) (xy 9.374942 -0.679174) (xy 9.480188 -0.437655) (xy 9.552835 -0.191228)
			(xy 9.592942 0.058177) (xy 9.600565 0.308626) (xy 9.575761 0.558187) (xy 9.518585 0.804929) (xy 9.429096 1.046919)
			(xy 9.307348 1.282224) (xy 9.166567 1.491582) (xy 8.99275 1.697347) (xy 8.78885 1.892601) (xy 8.554523 2.077546)
			(xy 8.289424 2.252382) (xy 7.993208 2.417311) (xy 7.665531 2.572535) (xy 7.306048 2.718253) (xy 6.914415 2.854667)
			(xy 6.734365 2.911023) (xy 6.561061 2.961355) (xy 6.365105 3.014539) (xy 6.157075 3.067943) (xy 5.947548 3.118935)
			(xy 5.747104 3.164884) (xy 5.566318 3.203156) (xy 5.537199 3.208925) (xy 5.452065 3.225768) (xy 5.378097 3.240734)
			(xy 5.322063 3.252432) (xy 5.29073 3.259467) (xy 5.287433 3.26037) (xy 5.268177 3.257743) (xy 5.266266 3.252185)
			(xy 5.274147 3.231521) (xy 5.29514 3.189445) (xy 5.325268 3.133785) (xy 5.336966 3.113016) (xy 5.465713 2.868267)
			(xy 5.589283 2.597227) (xy 5.704647 2.307403) (xy 5.808779 2.006304) (xy 5.882974 1.758733) (xy 5.899513 1.704662)
			(xy 5.915655 1.67459) (xy 5.938904 1.659583) (xy 5.973154 1.651378) (xy 6.010489 1.642554) (xy 6.073275 1.625714)
			(xy 6.154588 1.602798) (xy 6.247508 1.575746) (xy 6.316088 1.555285) (xy 6.60908 1.460759) (xy 6.882362 1.360053)
			(xy 7.134009 1.254188) (xy 7.362097 1.144187) (xy 7.564699 1.031072) (xy 7.739892 0.915866) (xy 7.885749 0.799592)
			(xy 8.000347 0.683273) (xy 8.031917 0.643802) (xy 8.105388 0.532487) (xy 8.151557 0.426878) (xy 8.1735 0.317707)
			(xy 8.175228 0.211667) (xy 8.168752 0.132165) (xy 8.156003 0.070565) (xy 8.132775 0.010968) (xy 8.110255 -0.033866)
			(xy 8.050958 -0.125609) (xy 7.968124 -0.224913) (xy 7.86875 -0.324684) (xy 7.759828 -0.417826) (xy 7.662333 -0.488216)
			(xy 7.498976 -0.586526) (xy 7.307997 -0.686249) (xy 7.095417 -0.784923) (xy 6.867259 -0.880088) (xy 6.629545 -0.969282)
			(xy 6.388296 -1.050045) (xy 6.149534 -1.119916) (xy 6.058392 -1.143682) (xy 5.950965 -1.170667) (xy 5.911742 -1.326167)
			(xy 5.829099 -1.618037) (xy 5.726969 -1.919764) (xy 5.61034 -2.217794) (xy 5.4842 -2.498577) (xy 5.468203 -2.531397)
			(xy 5.430994 -2.608492) (xy 5.400644 -2.674198) (xy 5.379657 -2.722875) (xy 5.370532 -2.74888) (xy 5.370587 -2.751565)
			(xy 5.388611 -2.750438)
		)
		(stroke
			(width 0.01)
			(type solid)
		)
		(fill solid)
		(layer "F.Mask")
		(uuid "a8bdffc9-a1a5-43e1-87fa-bfc5ec2ee2d1")
	)
	(fp_poly
		(pts
			(xy -5.402275 -2.739155) (xy -5.401734 -2.737254) (xy -5.408697 -2.720805) (xy -5.427993 -2.678945)
			(xy -5.457232 -2.616763) (xy -5.494026 -2.539348) (xy -5.526965 -2.470554) (xy -5.615476 -2.27522)
			(xy -5.701832 -2.063869) (xy -5.78295 -1.845273) (xy -5.855747 -1.628204) (xy -5.91714 -1.421434)
			(xy -5.964048 -1.233734) (xy -5.967975 -1.215638) (xy -5.976969 -1.19068) (xy -5.996227 -1.172069)
			(xy -6.033161 -1.155242) (xy -6.095182 -1.135637) (xy -6.100388 -1.13412) (xy -6.454201 -1.025279)
			(xy -6.774481 -0.914039) (xy -7.061484 -0.800259) (xy -7.315468 -0.683797) (xy -7.536691 -0.564514)
			(xy -7.725409 -0.442269) (xy -7.88188 -0.31692) (xy -8.006362 -0.188327) (xy -8.099112 -0.056348)
			(xy -8.111582 -0.033866) (xy -8.139369 0.020531) (xy -8.156672 0.064476) (xy -8.165957 0.109348)
			(xy -8.169687 0.166525) (xy -8.170334 0.237324) (xy -8.169316 0.316489) (xy -8.164665 0.373641) (xy -8.153981 0.420609)
			(xy -8.134866 0.469224) (xy -8.114753 0.511447) (xy -8.055848 0.6079) (xy -7.97342 0.710122) (xy -7.874831 0.809985)
			(xy -7.767442 0.899361) (xy -7.755467 0.90816) (xy -7.580532 1.023376) (xy -7.376305 1.13747) (xy -7.147348 1.248376)
			(xy -6.898223 1.354028) (xy -6.633493 1.452357) (xy -6.358467 1.541075) (xy -6.264872 1.569075) (xy -6.174405 1.596199)
			(xy -6.096104 1.619736) (xy -6.039004 1.63697) (xy -6.029281 1.639921) (xy -5.937162 1.667933) (xy -5.898771 1.809653)
			(xy -5.783531 2.179013) (xy -5.635733 2.556362) (xy -5.467821 2.917006) (xy -5.425002 3.001762) (xy -5.385758 3.077888)
			(xy -5.353313 3.139242) (xy -5.330891 3.179687) (xy -5.324082 3.190679) (xy -5.304165 3.223792) (xy -5.303596 3.242779)
			(xy -5.325839 3.248899) (xy -5.374359 3.243415) (xy -5.435601 3.231268) (xy -5.649735 3.185016) (xy -5.835554 3.143893)
			(xy -5.998017 3.106735) (xy -6.142087 3.072375) (xy -6.272722 3.039649) (xy -6.394886 3.00739) (xy -6.433187 2.996924)
			(xy -6.86303 2.869552) (xy -7.260479 2.73306) (xy -7.625818 2.587228) (xy -7.95933 2.431838) (xy -8.261297 2.266671)
			(xy -8.532002 2.091508) (xy -8.771727 1.90613) (xy -8.980757 1.710318) (xy -9.159373 1.503853) (xy -9.307858 1.286516)
			(xy -9.426495 1.058089) (xy -9.515566 0.818352) (xy -9.575356 0.567086) (xy -9.575947 0.56371) (xy -9.597349 0.36875)
			(xy -9.59791 0.159289) (xy -9.578333 -0.053048) (xy -9.539323 -0.256633) (xy -9.522431 -0.319482)
			(xy -9.436977 -0.553798) (xy -9.319081 -0.781212) (xy -9.169662 -1.000649) (xy -8.98964 -1.21103)
			(xy -8.779936 -1.41128) (xy -8.541468 -1.600321) (xy -8.280272 -1.77396) (xy -8.041141 -1.908433)
			(xy -7.770833 -2.039497) (xy -7.471946 -2.166221) (xy -7.147079 -2.287674) (xy -6.798829 -2.402925)
			(xy -6.429797 -2.511042) (xy -6.042579 -2.611093) (xy -5.767178 -2.674714) (xy -5.644204 -2.701493)
			(xy -5.550718 -2.721066) (xy -5.483251 -2.734024) (xy -5.438333 -2.740963) (xy -5.412498 -2.742476)
			(xy -5.402275 -2.739155)
		)
		(stroke
			(width 0.01)
			(type solid)
		)
		(fill solid)
		(layer "F.Mask")
		(uuid "0131d50a-be8b-4639-8469-4fc3f13a63ee")
	)
	(fp_poly
		(pts
			(xy 0.454055 -5.24542) (xy 0.874052 -5.192804) (xy 1.079448 -5.154814) (xy 1.480289 -5.055594) (xy 1.875377 -4.924066)
			(xy 2.261635 -4.761681) (xy 2.63598 -4.56989) (xy 2.995335 -4.350146) (xy 3.336618 -4.1039) (xy 3.3782 -4.071053)
			(xy 3.481339 -3.98439) (xy 3.598362 -3.878775) (xy 3.722817 -3.760632) (xy 3.848254 -3.636383) (xy 3.968221 -3.51245)
			(xy 4.07627 -3.395256) (xy 4.165948 -3.291223) (xy 4.184654 -3.268133) (xy 4.444653 -2.915822) (xy 4.673714 -2.549741)
			(xy 4.871795 -2.169991) (xy 5.038852 -1.776676) (xy 5.174844 -1.369898) (xy 5.279726 -0.949759) (xy 5.353457 -0.516362)
			(xy 5.361817 -0.450298) (xy 5.373438 -0.326049) (xy 5.38189 -0.177266) (xy 5.387115 -0.012923) (xy 5.389053 0.158009)
			(xy 5.387645 0.326558) (xy 5.382832 0.48375) (xy 5.374555 0.620614) (xy 5.36924 0.677334) (xy 5.305991 1.108194)
			(xy 5.211586 1.527017) (xy 5.086957 1.932585) (xy 4.933039 2.323682) (xy 4.750767 2.699089) (xy 4.541074 3.05759)
			(xy 4.304894 3.397967) (xy 4.043163 3.719004) (xy 3.756813 4.019482) (xy 3.446779 4.298186) (xy 3.113997 4.553897)
			(xy 2.759398 4.785398) (xy 2.383919 4.991473) (xy 1.988493 5.170903) (xy 1.890441 5.209977) (xy 1.825387 5.234524)
			(xy 1.773452 5.252804) (xy 1.741757 5.26238) (xy 1.735466 5.262998) (xy 1.728653 5.24666) (xy 1.710918 5.201685)
			(xy 1.683413 5.131073) (xy 1.647289 5.03783) (xy 1.603696 4.924957) (xy 1.553786 4.795458) (xy 1.498709 4.652336)
			(xy 1.439617 4.498595) (xy 1.377661 4.337237) (xy 1.313992 4.171265) (xy 1.24976 4.003684) (xy 1.186117 3.837495)
			(xy 1.124214 3.675702) (xy 1.065203 3.521309) (xy 1.010233 3.377318) (xy 0.960456 3.246733) (xy 0.917023 3.132556)
			(xy 0.881085 3.037791) (xy 0.853793 2.965441) (xy 0.836299 2.918509) (xy 0.829752 2.899999) (xy 0.829733 2.899862)
			(xy 0.84417 2.896949) (xy 0.879298 2.9013) (xy 0.883007 2.902022) (xy 0.911431 2.914952) (xy 0.963392 2.946)
			(xy 1.035422 2.992855) (xy 1.124047 3.053202) (xy 1.225799 3.12473) (xy 1.330649 3.200337) (xy 1.433983 3.275289)
			(xy 1.530387 3.344415) (xy 1.615925 3.404955) (xy 1.686663 3.454151) (xy 1.738666 3.489244) (xy 1.767999 3.507474)
			(xy 1.77043 3.50869) (xy 1.805708 3.520151) (xy 1.830337 3.509426) (xy 1.847722 3.490015) (xy 1.854525 3.4803)
			(xy 1.860287 3.467513) (xy 1.865092 3.448951) (xy 1.869027 3.421913) (xy 1.872178 3.383695) (xy 1.874631 3.331595)
			(xy 1.876472 3.262909) (xy 1.877787 3.174935) (xy 1.878662 3.064971) (xy 1.879183 2.930312) (xy 1.879436 2.768258)
			(xy 1.879508 2.576104) (xy 1.879505 2.491558) (xy 1.879177 2.27794) (xy 1.878258 2.085104) (xy 1.876779 1.914938)
			(xy 1.874773 1.769331) (xy 1.872271 1.650171) (xy 1.869305 1.559346) (xy 1.865906 1.498747) (xy 1.862395 1.471208)
			(xy 1.841032 1.411968) (xy 1.809471 1.3595) (xy 1.762943 1.308875) (xy 1.69668 1.255165) (xy 1.605914 1.19344)
			(xy 1.574138 1.173218) (xy 1.479683 1.11116) (xy 1.413353 1.061725) (xy 1.37612 1.025674) (xy 1.368546 1.012351)
			(xy 1.362604 0.980743) (xy 1.355024 0.923585) (xy 1.346795 0.849088) (xy 1.339159 0.768373) (xy 1.294738 0.435907)
			(xy 1.220834 0.116958) (xy 1.118052 -0.18696) (xy 0.986996 -0.474334) (xy 0.828272 -0.74365) (xy 0.642486 -0.993395)
			(xy 0.627456 -1.011321) (xy 0.523414 -1.124405) (xy 0.413587 -1.22588) (xy 0.302492 -1.31266) (xy 0.194648 -1.381661)
			(xy 0.094572 -1.429799) (xy 0.006783 -1.453987) (xy -0.024206 -1.456266) (xy -0.117486 -1.441002)
			(xy -0.220613 -1.397034) (xy -0.330852 -1.327103) (xy -0.44547 -1.233951) (xy -0.561733 -1.120316)
			(xy -0.676906 -0.98894) (xy -0.788256 -0.842563) (xy -0.893049 -0.683925) (xy -0.988551 -0.515767)
			(xy -1.015663 -0.462496) (xy -1.08242 -0.31481) (xy -1.147724 -0.146964) (xy -1.206766 0.027502)
			(xy -1.254738 0.195047) (xy -1.267093 0.245534) (xy -1.286488 0.338496) (xy -1.305659 0.447338) (xy -1.323327 0.562851)
			(xy -1.338211 0.675826) (xy -1.349029 0.777053) (xy -1.354503 0.857323) (xy -1.354917 0.877167) (xy -1.359621 0.935233)
			(xy -1.371121 0.985783) (xy -1.376402 0.998702) (xy -1.39856 1.023463) (xy -1.444245 1.061205) (xy -1.507842 1.107655)
			(xy -1.583734 1.15854) (xy -1.600519 1.169269) (xy -1.687888 1.225987) (xy -1.751423 1.271027) (xy -1.796884 1.309174)
			(xy -1.830031 1.345212) (xy -1.854201 1.379964) (xy -1.905001 1.46206) (xy -1.905001 2.466086) (xy -1.904943 2.676551)
			(xy -1.904721 2.85574) (xy -1.904263 3.006245) (xy -1.903495 3.130657) (xy -1.902346 3.231567) (xy -1.900741 3.311566)
			(xy -1.898609 3.373246) (xy -1.895876 3.419198) (xy -1.89247 3.452012) (xy -1.888318 3.47428) (xy -1.883347 3.488593)
			(xy -1.877485 3.497543) (xy -1.875993 3.499126) (xy -1.86334 3.509974) (xy -1.849081 3.515715) (xy -1.830277 3.514638)
			(xy -1.803991 3.50503) (xy -1.767286 3.485179) (xy -1.717225 3.453374) (xy -1.65087 3.407902) (xy -1.565285 3.347051)
			(xy -1.457531 3.26911) (xy -1.361783 3.199416) (xy -1.22299 3.099462) (xy -1.109073 3.020171) (xy -1.018674 2.960782)
			(xy -0.950439 2.920536) (xy -0.903011 2.898673) (xy -0.875034 2.894435) (xy -0.865152 2.907062) (xy -0.867391 2.922583)
			(xy -0.874889 2.943537) (xy -0.893538 2.993414) (xy -0.922315 3.069536) (xy -0.960198 3.169222) (xy -1.006164 3.289793)
			(xy -1.059191 3.42857) (xy -1.118258 3.582872) (xy -1.182341 3.75002) (xy -1.250419 3.927334) (xy -1.286675 4.021667)
			(xy -1.35718 4.205078) (xy -1.424839 4.381147) (xy -1.488549 4.547004) (xy -1.547212 4.699781) (xy -1.599724 4.836607)
			(xy -1.644986 4.954613) (xy -1.681896 5.05093) (xy -1.709353 5.122688) (xy -1.726256 5.167019) (xy -1.730167 5.177367)
			(xy -1.750209 5.225753) (xy -1.767143 5.257835) (xy -1.774984 5.265773) (xy -1.793862 5.259438) (xy -1.838264 5.24231)
			(xy -1.902468 5.21666) (xy -1.980753 5.184758) (xy -2.023534 5.167112) (xy -2.387042 5.004299) (xy -2.723308 4.827389)
			(xy -3.037155 4.633188) (xy -3.333406 4.418501) (xy -3.616882 4.180133) (xy -3.852458 3.955444) (xy -4.14223 3.640236)
			(xy -4.403911 3.30629) (xy -4.637173 2.954259) (xy -4.841692 2.584797) (xy -5.01714 2.198555) (xy -5.163193 1.796188)
			(xy -5.279523 1.378348) (xy -5.365805 0.945689) (xy -5.370783 0.9144) (xy -5.382025 0.83906) (xy -5.390871 0.769494)
			(xy -5.397599 0.700117) (xy -5.402487 0.625346) (xy -5.405814 0.539597) (xy -5.40786 0.437286) (xy -5.408901 0.31283)
			(xy -5.409218 0.160643) (xy -5.40922 0.143934) (xy -5.408435 -0.04149) (xy -5.405616 -0.19991) (xy -5.400085 -0.338159)
			(xy -5.391163 -0.463074) (xy -5.378172 -0.581489) (xy -5.360432 -0.70024) (xy -5.337265 -0.826161)
			(xy -5.307991 -0.966086) (xy -5.291645 -1.039904) (xy -5.182607 -1.450182) (xy -5.043158 -1.847076)
			(xy -4.874546 -2.22923) (xy -4.678021 -2.595289) (xy -4.45483 -2.943897) (xy -4.206221 -3.2737) (xy -3.933442 -3.583342)
			(xy -3.637742 -3.871467) (xy -3.320368 -4.13672) (xy -2.982569 -4.377745) (xy -2.625593 -4.593187)
			(xy -2.250689 -4.781691) (xy -1.859103 -4.941901) (xy -1.625601 -5.021083) (xy -1.221188 -5.130504)
			(xy -0.808374 -5.207778) (xy -0.3898 -5.252776) (xy 0.03189 -5.265367) (xy 0.454055 -5.24542)
		)
		(stroke
			(width 0.01)
			(type solid)
		)
		(fill solid)
		(layer "F.Mask")
		(uuid "9998a394-1709-42cb-885d-10e29ca3cc47")
	)
)
