(footprint "MountingHole_1.5mm_Pad_TopBottom"
	(version 20240108)
	(generator "pcbnew")
	(generator_version "8.0")
	(layer "F.Cu")
	(descr "1.5 mm hole for soldering, https://")
	(tags "Mounting Hole")
	(property "Reference" "REF**"
		(at 0 -1.9 0)
		(unlocked yes)
		(layer "F.SilkS")
		(uuid "121fdd1b-00af-4ccb-8107-44aabd9346f9")
		(effects
			(font
				(size 1 1)
				(thickness 0.15)
			)
		)
	)
	(property "Value" "MountingHole_1.5mm_Pad_TopBottom"
		(at 0 1 0)
		(unlocked yes)
		(layer "F.Fab")
		(uuid "3e249862-9ee5-4fdf-b9d8-b59aff2f2546")
		(effects
			(font
				(size 1 1)
				(thickness 0.15)
			)
		)
	)
	(property "Footprint" ""
		(at 0 0 0)
		(unlocked yes)
		(layer "F.Fab")
		(hide yes)
		(uuid "069eead8-d154-4916-9a0f-12a5a7ced3a9")
		(effects
			(font
				(size 1 1)
				(thickness 0.15)
			)
		)
	)
	(property "Datasheet" ""
		(at 0 0 0)
		(unlocked yes)
		(layer "F.Fab")
		(hide yes)
		(uuid "2841b152-be89-4855-b93e-9a565dae284a")
		(effects
			(font
				(size 1 1)
				(thickness 0.15)
			)
		)
	)
	(property "Description" ""
		(at 0 0 0)
		(unlocked yes)
		(layer "F.Fab")
		(hide yes)
		(uuid "f2e3321b-2e73-4914-96fe-c5e1d92235ae")
		(effects
			(font
				(size 1 1)
				(thickness 0.15)
			)
		)
	)
	(attr through_hole)
	(fp_circle
		(center 0 0)
		(end 1.4 0.01)
		(stroke
			(width 0.15)
			(type solid)
		)
		(fill none)
		(layer "Cmts.User")
		(uuid "98815eee-5a63-4476-93b5-0500b41e953a")
	)
	(fp_circle
		(center 0 0)
		(end 1.49 0)
		(stroke
			(width 0.05)
			(type solid)
		)
		(fill none)
		(layer "F.CrtYd")
		(uuid "f748c577-8306-40a8-bc18-a03d85e115a2")
	)
	(fp_circle
		(center 0 0)
		(end 1.2 0.35)
		(stroke
			(width 0.1)
			(type default)
		)
		(fill none)
		(layer "F.Fab")
		(uuid "08d4f181-183f-4873-bd7e-87e88d69de6b")
	)
	(fp_text user "${REFERENCE}"
		(at 0 2.5 0)
		(unlocked yes)
		(layer "F.Fab")
		(uuid "619374a9-c78e-446e-84de-e8c38d035f37")
		(effects
			(font
				(size 1 1)
				(thickness 0.15)
			)
		)
	)
	(pad "1" thru_hole circle
		(at 0 0)
		(size 3 3)
		(drill 1.5)
		(layers "*.Cu" "*.Mask")
		(remove_unused_layers no)
		(uuid "5dfead5c-71dc-4efc-b4b0-f146f990f287")
	)
	(model "${LSF_KICAD_LIB}/lsf-kicad-lib.3dshapes/MountingHole_1.5mm_Pad_TopBottom.wrl"
		(offset
			(xyz 0 0 0)
		)
		(scale
			(xyz 1 1 1)
		)
		(rotate
			(xyz 0 0 0)
		)
	)
)
