(footprint "Skyworks_SKY66294-11_QFN-16-1EP_5x5mm_P0.8mm_EP2.875x2.875mm_ThermalVias"
	(version 20240108)
	(generator "pcbnew")
	(generator_version "8.0")
	(layer "F.Cu")
	(descr "Skyworks SKY66294-11 QFN, 16 Pin (https://www.skyworksinc.com/-/media/SkyWorks/Documents/Products/2601-2700/SKY66294_11_203285E.pdf), generated with kicad-footprint-generator ipc_noLead_generator.py")
	(tags "Skyworks QFN NoLead")
	(property "Reference" "REF**"
		(at 0 -3.8 0)
		(layer "F.SilkS")
		(uuid "b1db424b-b881-4393-ad78-5a137518e499")
		(effects
			(font
				(size 1 1)
				(thickness 0.15)
			)
		)
	)
	(property "Value" "Skyworks_SKY66294-11_QFN-16-1EP_5x5mm_P0.8mm_EP2.875x2.875mm_ThermalVias"
		(at 0 3.8 0)
		(layer "F.Fab")
		(uuid "e79d1eba-d84a-4390-b760-988321800296")
		(effects
			(font
				(size 1 1)
				(thickness 0.15)
			)
		)
	)
	(property "Footprint" ""
		(at 0 0 0)
		(unlocked yes)
		(layer "F.Fab")
		(hide yes)
		(uuid "32d71a6c-6516-4deb-9b7c-fde14701fc64")
		(effects
			(font
				(size 1.27 1.27)
			)
		)
	)
	(property "Datasheet" ""
		(at 0 0 0)
		(unlocked yes)
		(layer "F.Fab")
		(hide yes)
		(uuid "774fae98-0b93-4599-b6eb-c76bcdc68685")
		(effects
			(font
				(size 1.27 1.27)
			)
		)
	)
	(property "Description" ""
		(at 0 0 0)
		(unlocked yes)
		(layer "F.Fab")
		(hide yes)
		(uuid "19b1aa80-d81b-48cd-8e3f-c3806846634b")
		(effects
			(font
				(size 1.27 1.27)
			)
		)
	)
	(attr smd)
	(fp_line
		(start -2.61 2.61)
		(end -2.61 1.71)
		(stroke
			(width 0.12)
			(type solid)
		)
		(layer "F.SilkS")
		(uuid "f1cdec35-7ecb-4119-801e-425ae0d4e4fd")
	)
	(fp_line
		(start -1.71 -2.61)
		(end -2.61 -2.61)
		(stroke
			(width 0.12)
			(type solid)
		)
		(layer "F.SilkS")
		(uuid "b10b8b08-3789-42d2-aa83-d1ccc917c8b6")
	)
	(fp_line
		(start -1.71 2.61)
		(end -2.61 2.61)
		(stroke
			(width 0.12)
			(type solid)
		)
		(layer "F.SilkS")
		(uuid "f691e786-96d0-4c4e-942a-ad4308493202")
	)
	(fp_line
		(start 1.71 -2.61)
		(end 2.61 -2.61)
		(stroke
			(width 0.12)
			(type solid)
		)
		(layer "F.SilkS")
		(uuid "1c751de8-808c-4d74-b66a-626d903a1862")
	)
	(fp_line
		(start 1.71 2.61)
		(end 2.61 2.61)
		(stroke
			(width 0.12)
			(type solid)
		)
		(layer "F.SilkS")
		(uuid "9cf613af-1443-4cb3-a088-9021298d677f")
	)
	(fp_line
		(start 2.61 -2.61)
		(end 2.61 -1.71)
		(stroke
			(width 0.12)
			(type solid)
		)
		(layer "F.SilkS")
		(uuid "a5f7e966-62be-4b08-8a63-77e24265cf66")
	)
	(fp_line
		(start 2.61 2.61)
		(end 2.61 1.71)
		(stroke
			(width 0.12)
			(type solid)
		)
		(layer "F.SilkS")
		(uuid "943269b5-b016-4b5b-912b-67ef54dddd2f")
	)
	(fp_line
		(start -3.1 -3.1)
		(end -3.1 3.1)
		(stroke
			(width 0.05)
			(type solid)
		)
		(layer "F.CrtYd")
		(uuid "bd488786-f7cb-4891-8e9c-ebf520b9fab3")
	)
	(fp_line
		(start -3.1 3.1)
		(end 3.1 3.1)
		(stroke
			(width 0.05)
			(type solid)
		)
		(layer "F.CrtYd")
		(uuid "1ff2ab7b-f2f2-4d0d-823d-bee3e0aab7a8")
	)
	(fp_line
		(start 3.1 -3.1)
		(end -3.1 -3.1)
		(stroke
			(width 0.05)
			(type solid)
		)
		(layer "F.CrtYd")
		(uuid "d7e66bd2-317e-42e5-a63b-0f281ecfb349")
	)
	(fp_line
		(start 3.1 3.1)
		(end 3.1 -3.1)
		(stroke
			(width 0.05)
			(type solid)
		)
		(layer "F.CrtYd")
		(uuid "1e0456fc-9b57-43a3-bfde-97b2610287b4")
	)
	(fp_line
		(start -2.5 -1.5)
		(end -1.5 -2.5)
		(stroke
			(width 0.1)
			(type solid)
		)
		(layer "F.Fab")
		(uuid "5e4481ec-a3a7-47c0-9829-401c06fc13ce")
	)
	(fp_line
		(start -2.5 2.5)
		(end -2.5 -1.5)
		(stroke
			(width 0.1)
			(type solid)
		)
		(layer "F.Fab")
		(uuid "9234768f-1fe2-4dc8-aef5-c4c7cd53cda2")
	)
	(fp_line
		(start -1.5 -2.5)
		(end 2.5 -2.5)
		(stroke
			(width 0.1)
			(type solid)
		)
		(layer "F.Fab")
		(uuid "09d0fa85-b4b7-45ae-b29b-2e538a1fc8a9")
	)
	(fp_line
		(start 2.5 -2.5)
		(end 2.5 2.5)
		(stroke
			(width 0.1)
			(type solid)
		)
		(layer "F.Fab")
		(uuid "7ccb1364-f3b2-4e0c-85cc-d494b60f9dcb")
	)
	(fp_line
		(start 2.5 2.5)
		(end -2.5 2.5)
		(stroke
			(width 0.1)
			(type solid)
		)
		(layer "F.Fab")
		(uuid "4064cf49-a2fa-4d17-b51a-c66ac02cf485")
	)
	(fp_text user "${REFERENCE}"
		(at 0 0 0)
		(layer "F.Fab")
		(uuid "3bf825a5-cd57-4e95-80d5-d309051a13d8")
		(effects
			(font
				(size 1 1)
				(thickness 0.15)
			)
		)
	)
	(pad "" smd roundrect
		(at -0.96 -0.96)
		(size 0.86 0.86)
		(layers "F.Paste")
		(roundrect_rratio 0.25)
		(uuid "12783bf8-736d-46e8-bf66-b70472729a63")
	)
	(pad "" smd roundrect
		(at -0.96 0)
		(size 0.86 0.86)
		(layers "F.Paste")
		(roundrect_rratio 0.25)
		(uuid "1fdcad9c-db2c-4b3d-8200-c604aea9ab85")
	)
	(pad "" smd roundrect
		(at -0.96 0.96)
		(size 0.86 0.86)
		(layers "F.Paste")
		(roundrect_rratio 0.25)
		(uuid "04e8750c-6888-4d31-a977-4177c94071d4")
	)
	(pad "" smd roundrect
		(at 0 -0.96)
		(size 0.86 0.86)
		(layers "F.Paste")
		(roundrect_rratio 0.25)
		(uuid "ca2e8e28-af39-4c77-8189-a989deb6645b")
	)
	(pad "" smd roundrect
		(at 0 0)
		(size 0.86 0.86)
		(layers "F.Paste")
		(roundrect_rratio 0.25)
		(uuid "679d409f-fdbb-45b3-8f89-47a65d6b5c79")
	)
	(pad "" smd roundrect
		(at 0 0.96)
		(size 0.86 0.86)
		(layers "F.Paste")
		(roundrect_rratio 0.25)
		(uuid "88ab10e1-7b8c-4345-b94d-36acd14acd4b")
	)
	(pad "" smd roundrect
		(at 0.96 -0.96)
		(size 0.86 0.86)
		(layers "F.Paste")
		(roundrect_rratio 0.25)
		(uuid "73948c25-45bc-42f6-9e40-659f71b5999f")
	)
	(pad "" smd roundrect
		(at 0.96 0)
		(size 0.86 0.86)
		(layers "F.Paste")
		(roundrect_rratio 0.25)
		(uuid "0d518c68-628d-40f2-b538-0e484341de6e")
	)
	(pad "" smd roundrect
		(at 0.96 0.96)
		(size 0.86 0.86)
		(layers "F.Paste")
		(roundrect_rratio 0.25)
		(uuid "449e8da1-24ff-48e4-9340-64a0e8e87a1f")
	)
	(pad "1" smd roundrect
		(at -2.315 -1.2)
		(size 0.67 0.5)
		(layers "F.Cu" "F.Paste" "F.Mask")
		(roundrect_rratio 0.25)
		(uuid "45b847fc-b46a-4a9d-82e4-9635818987ea")
	)
	(pad "2" smd roundrect
		(at -2.315 -0.4)
		(size 0.67 0.5)
		(layers "F.Cu" "F.Paste" "F.Mask")
		(roundrect_rratio 0.25)
		(uuid "53952ded-30a6-42be-be3f-33dc629f02a7")
	)
	(pad "3" smd roundrect
		(at -2.315 0.4)
		(size 0.67 0.5)
		(layers "F.Cu" "F.Paste" "F.Mask")
		(roundrect_rratio 0.25)
		(uuid "f6aeeb58-4ab8-4f13-8140-713899654ddd")
	)
	(pad "4" smd roundrect
		(at -2.315 1.2)
		(size 0.67 0.5)
		(layers "F.Cu" "F.Paste" "F.Mask")
		(roundrect_rratio 0.25)
		(uuid "4fad3356-b6a2-4788-8815-26a4deb11125")
	)
	(pad "5" smd roundrect
		(at -1.2 2.315)
		(size 0.5 0.67)
		(layers "F.Cu" "F.Paste" "F.Mask")
		(roundrect_rratio 0.25)
		(uuid "2efd5ba6-0623-4a4e-b750-12f908490cd2")
	)
	(pad "6" smd roundrect
		(at -0.4 2.315)
		(size 0.5 0.67)
		(layers "F.Cu" "F.Paste" "F.Mask")
		(roundrect_rratio 0.25)
		(uuid "727820a4-8ea1-4dd8-80a3-31a89098e4dd")
	)
	(pad "7" smd roundrect
		(at 0.4 2.315)
		(size 0.5 0.67)
		(layers "F.Cu" "F.Paste" "F.Mask")
		(roundrect_rratio 0.25)
		(uuid "a8709eff-afbd-41ca-aef4-c4bd179b1240")
	)
	(pad "8" smd roundrect
		(at 1.2 2.315)
		(size 0.5 0.67)
		(layers "F.Cu" "F.Paste" "F.Mask")
		(roundrect_rratio 0.25)
		(uuid "0f3abc4c-e6c6-447a-bc94-c6cb2b0029ca")
	)
	(pad "9" smd roundrect
		(at 2.315 1.2)
		(size 0.67 0.5)
		(layers "F.Cu" "F.Paste" "F.Mask")
		(roundrect_rratio 0.25)
		(uuid "998f36fc-b77b-4459-b566-632b863a3f7c")
	)
	(pad "10" smd roundrect
		(at 2.315 0.4)
		(size 0.67 0.5)
		(layers "F.Cu" "F.Paste" "F.Mask")
		(roundrect_rratio 0.25)
		(uuid "a5457002-ca1f-4489-9406-d37fa945fe9b")
	)
	(pad "11" smd roundrect
		(at 2.315 -0.4)
		(size 0.67 0.5)
		(layers "F.Cu" "F.Paste" "F.Mask")
		(roundrect_rratio 0.25)
		(uuid "2447b873-c7e8-43f4-9a3c-7fa5f56869ab")
	)
	(pad "12" smd roundrect
		(at 2.315 -1.2)
		(size 0.67 0.5)
		(layers "F.Cu" "F.Paste" "F.Mask")
		(roundrect_rratio 0.25)
		(uuid "72c75f29-269a-48fd-8fa7-e533b75fe7fb")
	)
	(pad "13" smd roundrect
		(at 1.2 -2.315)
		(size 0.5 0.67)
		(layers "F.Cu" "F.Paste" "F.Mask")
		(roundrect_rratio 0.25)
		(uuid "0158d450-ea72-4298-ae0e-52cce7e4d426")
	)
	(pad "14" smd roundrect
		(at 0.4 -2.315)
		(size 0.5 0.67)
		(layers "F.Cu" "F.Paste" "F.Mask")
		(roundrect_rratio 0.25)
		(uuid "eded0876-54e6-4d78-b40e-e7df23e8cf65")
	)
	(pad "15" smd roundrect
		(at -0.4 -2.315)
		(size 0.5 0.67)
		(layers "F.Cu" "F.Paste" "F.Mask")
		(roundrect_rratio 0.25)
		(uuid "efd23b5a-0312-45a7-9208-b04deddc89f0")
	)
	(pad "16" smd roundrect
		(at -1.2 -2.315)
		(size 0.5 0.67)
		(layers "F.Cu" "F.Paste" "F.Mask")
		(roundrect_rratio 0.25)
		(uuid "981c2a61-da6d-4614-a38e-c13ec4a86a73")
	)
	(pad "17" thru_hole circle
		(at -1.2 -1.2)
		(size 0.6 0.6)
		(drill 0.3)
		(layers "*.Cu")
		(remove_unused_layers no)
		(uuid "c14b66fc-c790-4a30-bc71-cc79cbe38d96")
	)
	(pad "17" thru_hole circle
		(at -1.2 -0.6)
		(size 0.6 0.6)
		(drill 0.3)
		(layers "*.Cu")
		(remove_unused_layers no)
		(uuid "ba1e4635-a1ec-4003-9b2e-2931051dd06c")
	)
	(pad "17" thru_hole circle
		(at -1.2 0)
		(size 0.6 0.6)
		(drill 0.3)
		(layers "*.Cu")
		(remove_unused_layers no)
		(uuid "9cbec22a-e003-42e9-8ea1-97d6da0fa954")
	)
	(pad "17" thru_hole circle
		(at -1.2 0.6)
		(size 0.6 0.6)
		(drill 0.3)
		(layers "*.Cu")
		(remove_unused_layers no)
		(uuid "21c9abe7-81c8-4ec5-8982-db7315915c15")
	)
	(pad "17" thru_hole circle
		(at -1.2 1.2)
		(size 0.6 0.6)
		(drill 0.3)
		(layers "*.Cu")
		(remove_unused_layers no)
		(uuid "96256aed-7e48-4de7-8194-5f108d8d27e1")
	)
	(pad "17" thru_hole circle
		(at -0.6 -1.2)
		(size 0.6 0.6)
		(drill 0.3)
		(layers "*.Cu")
		(remove_unused_layers no)
		(uuid "24084f60-56b8-48a7-94ae-1cca917b42ec")
	)
	(pad "17" thru_hole circle
		(at -0.6 -0.6)
		(size 0.6 0.6)
		(drill 0.3)
		(layers "*.Cu")
		(remove_unused_layers no)
		(uuid "27006130-4786-4c57-8631-c9d5081e5410")
	)
	(pad "17" thru_hole circle
		(at -0.6 0)
		(size 0.6 0.6)
		(drill 0.3)
		(layers "*.Cu")
		(remove_unused_layers no)
		(uuid "5bff4a35-2ec2-46d6-a2f0-f7d7d8d0422a")
	)
	(pad "17" thru_hole circle
		(at -0.6 0.6)
		(size 0.6 0.6)
		(drill 0.3)
		(layers "*.Cu")
		(remove_unused_layers no)
		(uuid "1f057cbd-44cf-4f94-a39f-d2637148cf32")
	)
	(pad "17" thru_hole circle
		(at -0.6 1.2)
		(size 0.6 0.6)
		(drill 0.3)
		(layers "*.Cu")
		(remove_unused_layers no)
		(uuid "f62a72cf-4a7a-4908-ab34-39468fbcc560")
	)
	(pad "17" thru_hole circle
		(at 0 -1.2)
		(size 0.6 0.6)
		(drill 0.3)
		(layers "*.Cu")
		(remove_unused_layers no)
		(uuid "ee3fa72c-1af3-499d-92a9-384d66769d00")
	)
	(pad "17" thru_hole circle
		(at 0 -0.6)
		(size 0.6 0.6)
		(drill 0.3)
		(layers "*.Cu")
		(remove_unused_layers no)
		(uuid "27bfd0cd-853e-40fb-b021-78063327e513")
	)
	(pad "17" thru_hole circle
		(at 0 0)
		(size 0.6 0.6)
		(drill 0.3)
		(layers "*.Cu")
		(remove_unused_layers no)
		(uuid "4d173280-4a26-4e1a-8ca4-21b944e64d58")
	)
	(pad "17" smd rect
		(at 0 0)
		(size 3.46 3.46)
		(layers "F.Cu" "F.Mask")
		(uuid "5bb5d947-0895-408d-bb8c-b24de2dba8ed")
	)
	(pad "17" smd rect
		(at 0 0)
		(size 3.46 3.46)
		(layers "B.Cu")
		(uuid "a7826d9d-f01d-44dd-a230-73ea8f31ec9f")
	)
	(pad "17" thru_hole circle
		(at 0 0.6)
		(size 0.6 0.6)
		(drill 0.3)
		(layers "*.Cu")
		(remove_unused_layers no)
		(uuid "648086ac-2882-4fb0-8743-7e07a513d3a5")
	)
	(pad "17" thru_hole circle
		(at 0 1.2)
		(size 0.6 0.6)
		(drill 0.3)
		(layers "*.Cu")
		(remove_unused_layers no)
		(uuid "b3cbfeee-429b-4776-bae3-8548177c0aa0")
	)
	(pad "17" thru_hole circle
		(at 0.6 -1.2)
		(size 0.6 0.6)
		(drill 0.3)
		(layers "*.Cu")
		(remove_unused_layers no)
		(uuid "c0d50c88-c61b-4c6b-81b7-f0f724ae0cba")
	)
	(pad "17" thru_hole circle
		(at 0.6 -0.6)
		(size 0.6 0.6)
		(drill 0.3)
		(layers "*.Cu")
		(remove_unused_layers no)
		(uuid "7771f374-7081-469f-b52c-57cfa1ad5aff")
	)
	(pad "17" thru_hole circle
		(at 0.6 0)
		(size 0.6 0.6)
		(drill 0.3)
		(layers "*.Cu")
		(remove_unused_layers no)
		(uuid "60289104-28c9-43a1-b561-2f9e23baf914")
	)
	(pad "17" thru_hole circle
		(at 0.6 0.6)
		(size 0.6 0.6)
		(drill 0.3)
		(layers "*.Cu")
		(remove_unused_layers no)
		(uuid "b887fc87-ae8e-4299-ac62-c053242e9175")
	)
	(pad "17" thru_hole circle
		(at 0.6 1.2)
		(size 0.6 0.6)
		(drill 0.3)
		(layers "*.Cu")
		(remove_unused_layers no)
		(uuid "9e7e1a85-0b4e-4701-878f-2e88a5012a46")
	)
	(pad "17" thru_hole circle
		(at 1.2 -1.2)
		(size 0.6 0.6)
		(drill 0.3)
		(property pad_prop_heatsink)
		(layers "*.Cu")
		(remove_unused_layers no)
		(uuid "4c62ccd6-91f8-4fca-8413-461ed493e94c")
	)
	(pad "17" thru_hole circle
		(at 1.2 -0.6)
		(size 0.6 0.6)
		(drill 0.3)
		(layers "*.Cu")
		(remove_unused_layers no)
		(uuid "923a28d1-4b58-4d0c-b154-1f1d62e1e0ff")
	)
	(pad "17" thru_hole circle
		(at 1.2 0)
		(size 0.6 0.6)
		(drill 0.3)
		(layers "*.Cu")
		(remove_unused_layers no)
		(uuid "34e5cd30-40e2-4a20-8ea8-d1d81aff013e")
	)
	(pad "17" thru_hole circle
		(at 1.2 0.6)
		(size 0.6 0.6)
		(drill 0.3)
		(layers "*.Cu")
		(remove_unused_layers no)
		(uuid "03700ec0-5c32-4429-9e7e-7069bf7b6968")
	)
	(pad "17" thru_hole circle
		(at 1.2 1.2)
		(size 0.6 0.6)
		(drill 0.3)
		(layers "*.Cu")
		(remove_unused_layers no)
		(uuid "73f161a1-655f-4757-b771-8b3973d98422")
	)
	(model "${LSF_KICAD_LIB}/lsf-kicad-lib.3dshapes/Skyworks_SKY66294-11_QFN-16-1EP_5x5mm_P0.8mm_EP2.875x2.875mm.wrl"
		(offset
			(xyz 0 0 0)
		)
		(scale
			(xyz 1 1 1)
		)
		(rotate
			(xyz 0 0 0)
		)
	)
)