(footprint "TDFN-14-1EP_3x3mm_P0.4mm_EP1.7x2.3mm_ThermalVias" (version 20211014) (generator pcbnew)
  (layer "F.Cu")
  (tedit 61E939EF)
  (descr "TDFN, 14 Pin (https://pdfserv.maximintegrated.com/package_dwgs/21-0137.PDF), generated with kicad-footprint-generator ipc_noLead_generator.py")
  (tags "TDFN NoLead")
  (attr smd)
  (fp_text reference "REF**" (at 0 -2.45) (layer "F.SilkS")
    (effects (font (size 1 1) (thickness 0.15)))
    (tstamp 1178cbf0-6445-454b-9fc4-81c470336f34)
  )
  (fp_text value "TDFN-14-1EP_3x3mm_P0.4mm_EP1.7x2.3mm_ThermalVias" (at 0 2.45) (layer "F.Fab")
    (effects (font (size 1 1) (thickness 0.15)))
    (tstamp e9f87254-3aff-467f-a939-bec9798e2ed2)
  )
  (fp_text user "${REFERENCE}" (at 0 0) (layer "F.Fab")
    (effects (font (size 0.75 0.75) (thickness 0.11)))
    (tstamp f4252f5c-0d44-430b-84a0-54d8dda18f4a)
  )
  (fp_line (start -1.5 1.61) (end 1.5 1.61) (layer "F.SilkS") (width 0.12) (tstamp d24d9691-fcf2-46cc-b07c-5b46ae19efd8))
  (fp_line (start 0 -1.61) (end 1.5 -1.61) (layer "F.SilkS") (width 0.12) (tstamp f9ff3390-8315-42a5-924d-f66e7d949212))
  (fp_line (start 2.12 1.75) (end 2.12 -1.75) (layer "F.CrtYd") (width 0.05) (tstamp 95491bc6-7ac7-4d4c-9f69-ccd48e4fc74d))
  (fp_line (start 2.12 -1.75) (end -2.12 -1.75) (layer "F.CrtYd") (width 0.05) (tstamp eb3cd280-446a-4d49-9681-f6bbe9b1aabe))
  (fp_line (start -2.12 1.75) (end 2.12 1.75) (layer "F.CrtYd") (width 0.05) (tstamp f38992c7-6309-45f1-87c0-ebd02f3d80ce))
  (fp_line (start -2.12 -1.75) (end -2.12 1.75) (layer "F.CrtYd") (width 0.05) (tstamp fe076478-9e3b-49aa-85dc-994042a14c28))
  (fp_line (start -1.5 -0.75) (end -0.75 -1.5) (layer "F.Fab") (width 0.1) (tstamp 3132de00-6e12-4b5f-9a4c-a5581308d4b8))
  (fp_line (start -0.75 -1.5) (end 1.5 -1.5) (layer "F.Fab") (width 0.1) (tstamp 555450b3-31a8-432d-98ad-838ecb360bb7))
  (fp_line (start -1.5 1.5) (end -1.5 -0.75) (layer "F.Fab") (width 0.1) (tstamp 66f7eda5-befd-41da-9483-26c35ae97bae))
  (fp_line (start 1.5 1.5) (end -1.5 1.5) (layer "F.Fab") (width 0.1) (tstamp 9f07633f-7de1-4083-a8ef-d2f503bb3a11))
  (fp_line (start 1.5 -1.5) (end 1.5 1.5) (layer "F.Fab") (width 0.1) (tstamp ee8f0e96-7d6d-41d2-8f59-727b39dcb5ab))
  (pad "" smd roundrect (at -0.425 -0.575) (size 0.74 1) (layers "F.Paste") (roundrect_rratio 0.25) (tstamp 339f74dc-59de-47c7-a06f-3f325f9149f3))
  (pad "" smd roundrect (at 0.425 0.575) (size 0.74 1) (layers "F.Paste") (roundrect_rratio 0.25) (tstamp ae0e07e3-0a06-497c-9d48-f2d62b5d93d8))
  (pad "" smd roundrect (at -0.425 0.575) (size 0.74 1) (layers "F.Paste") (roundrect_rratio 0.25) (tstamp c63e018e-54b0-4a62-8169-f4e2fa6ba7fa))
  (pad "" smd roundrect (at 0.425 -0.575) (size 0.74 1) (layers "F.Paste") (roundrect_rratio 0.25) (tstamp ca76b05b-4773-42ae-91ae-45c7c96d7248))
  (pad "1" smd roundrect (at -1.5 -1.2) (size 0.75 0.2) (layers "F.Cu" "F.Paste" "F.Mask") (roundrect_rratio 0.25) (tstamp 4a246d68-3e15-4e02-9cf4-da760ff3a6ef))
  (pad "2" smd roundrect (at -1.5 -0.8) (size 0.75 0.2) (layers "F.Cu" "F.Paste" "F.Mask") (roundrect_rratio 0.25) (tstamp a0dda567-a66a-4419-a932-ca9dc73949f3))
  (pad "3" smd roundrect (at -1.5 -0.4) (size 0.75 0.2) (layers "F.Cu" "F.Paste" "F.Mask") (roundrect_rratio 0.25) (tstamp 8d11e02e-f357-4dee-87d4-86921828f2ea))
  (pad "4" smd roundrect (at -1.5 0) (size 0.75 0.2) (layers "F.Cu" "F.Paste" "F.Mask") (roundrect_rratio 0.25) (tstamp 29ce9030-6076-42df-a24a-d8ba35aa0e24))
  (pad "5" smd roundrect (at -1.5 0.4) (size 0.75 0.2) (layers "F.Cu" "F.Paste" "F.Mask") (roundrect_rratio 0.25) (tstamp 88ffbbe4-a87b-4794-a331-08098d627397))
  (pad "6" smd roundrect (at -1.5 0.8) (size 0.75 0.2) (layers "F.Cu" "F.Paste" "F.Mask") (roundrect_rratio 0.25) (tstamp 21d430eb-dbbc-477b-9e4e-b84806465430))
  (pad "7" smd roundrect (at -1.5 1.2) (size 0.75 0.2) (layers "F.Cu" "F.Paste" "F.Mask") (roundrect_rratio 0.25) (tstamp dc0c58c1-70b5-4bd8-9d5a-702b3d281fb9))
  (pad "8" smd roundrect (at 1.5 1.2) (size 0.75 0.2) (layers "F.Cu" "F.Paste" "F.Mask") (roundrect_rratio 0.25) (tstamp 1018fd36-f524-4d46-87dc-deb772d39283))
  (pad "9" smd roundrect (at 1.5 0.8) (size 0.75 0.2) (layers "F.Cu" "F.Paste" "F.Mask") (roundrect_rratio 0.25) (tstamp b91625d3-bb5f-4035-b40b-f7afb7f75cfd))
  (pad "10" smd roundrect (at 1.5 0.4) (size 0.75 0.2) (layers "F.Cu" "F.Paste" "F.Mask") (roundrect_rratio 0.25) (tstamp 434b01b6-8231-40c1-84b8-383d8801da80))
  (pad "11" smd roundrect (at 1.5 0) (size 0.75 0.2) (layers "F.Cu" "F.Paste" "F.Mask") (roundrect_rratio 0.25) (tstamp a27759de-c9bc-4dfe-a3cd-975d6d3676c5))
  (pad "12" smd roundrect (at 1.5 -0.4) (size 0.75 0.2) (layers "F.Cu" "F.Paste" "F.Mask") (roundrect_rratio 0.25) (tstamp a1ec5ddc-1ad5-4afa-b757-01c678b9a9ab))
  (pad "13" smd roundrect (at 1.5 -0.8) (size 0.75 0.2) (layers "F.Cu" "F.Paste" "F.Mask") (roundrect_rratio 0.25) (tstamp a59e9123-5297-416e-a336-0b5aec065ea4))
  (pad "14" smd roundrect (at 1.5 -1.2) (size 0.75 0.2) (layers "F.Cu" "F.Paste" "F.Mask") (roundrect_rratio 0.25) (tstamp e1ee44c0-f606-4686-b91c-e4ea339dde24))
  (pad "15" thru_hole circle (at -0.6 0) (size 0.5 0.5) (drill 0.2) (layers *.Cu) (tstamp 0584e96e-370d-4f5f-9c85-c8796f46ffe6))
  (pad "15" thru_hole circle (at -0.6001 -0.9001) (size 0.5 0.5) (drill 0.2) (property pad_prop_heatsink) (layers *.Cu) (tstamp 0a5be3d3-3ddb-4b8c-af4e-2a5c7358c311))
  (pad "15" smd roundrect (at 0 0) (size 1.7 2.3) (layers "F.Cu" "F.Paste" "F.Mask") (roundrect_rratio 0.147) (tstamp 17e3403e-de32-42cb-9373-ef5c42277f22))
  (pad "15" thru_hole circle (at -0.6 0.9) (size 0.5 0.5) (drill 0.2) (layers *.Cu) (tstamp 3d95c57f-3070-4a40-8bba-7bb4ce250d89))
  (pad "15" thru_hole circle (at 0.6 0) (size 0.5 0.5) (drill 0.2) (layers *.Cu) (tstamp 62cbafad-d83d-464a-89a4-3934f01455ea))
  (pad "15" thru_hole circle (at 0.6 0.9) (size 0.5 0.5) (drill 0.2) (layers *.Cu) (tstamp 822a8416-0afd-450c-a2cc-b2d23af4ed1b))
  (pad "15" smd roundrect (at 0 0) (size 1.7 2.3) (layers "B.Cu") (roundrect_rratio 0.147059) (tstamp bec9a7a6-34ac-4e1d-a961-80f0f383e03d))
  (pad "15" thru_hole circle (at 0.6 -0.9) (size 0.5 0.5) (drill 0.2) (layers *.Cu) (tstamp c712fb34-a78d-4cb3-84ae-c7ec708ac7ba))
  (model "${LSF_KICAD_LIB}/lsf-kicad-lib.3dshapes/TDFN-14-1EP_3x3mm_P0.4mm_EP1.7x2.3mm.wrl"
    (offset (xyz 0 0 0))
    (scale (xyz 1 1 1))
    (rotate (xyz 0 0 0))
  )
)
